<?xml version="1.0" encoding="UTF-8" standalone="no"?>
<!-- Created with Inkscape (http://www.inkscape.org/) -->

<?xml-stylesheet type="text/css" href="../css/phonochromie_alem_v3.css"?><svg
   xmlns:dc="http://purl.org/dc/elements/1.1/"
   xmlns:cc="http://creativecommons.org/ns#"
   xmlns:rdf="http://www.w3.org/1999/02/22-rdf-syntax-ns#"
   xmlns:svg="http://www.w3.org/2000/svg"
   xmlns="http://www.w3.org/2000/svg"
   xmlns:sodipodi="http://sodipodi.sourceforge.net/DTD/sodipodi-0.dtd"
   xmlns:inkscape="http://www.inkscape.org/namespaces/inkscape"
   version="1.1"
   id="svg2"
   width="1371"
   height="957"
   viewBox="0 0 1371 957"
   sodipodi:docname="Gattegno_fr.svg"
   inkscape:version="0.92.5 (2060ec1f9f, 2020-04-08)">
  <metadata
     id="metadata8">
    <rdf:RDF>
      <cc:Work
         rdf:about="">
        <dc:format>image/svg+xml</dc:format>
        <dc:type
           rdf:resource="http://purl.org/dc/dcmitype/StillImage" />
        <dc:title />
      </cc:Work>
    </rdf:RDF>
  </metadata>
  <defs
     id="defs6" />
  <sodipodi:namedview
     pagecolor="#ffffff"
     bordercolor="#666666"
     borderopacity="1"
     objecttolerance="10"
     gridtolerance="10"
     guidetolerance="10"
     inkscape:pageopacity="0"
     inkscape:pageshadow="2"
     inkscape:window-width="1680"
     inkscape:window-height="986"
     id="namedview4"
     showgrid="false"
     inkscape:zoom="0.49320794"
     inkscape:cx="675.90072"
     inkscape:cy="554.69807"
     inkscape:window-x="0"
     inkscape:window-y="27"
     inkscape:window-maximized="1"
     inkscape:current-layer="svg2" />
       <defs>
    <linearGradient
       id="gradient_we_maj_nas"
       x1="0"
       x2="0"
       y1="0"
       y2="1">
      <stop
         offset="50%"
         class="phon_w"
         id="stop5" />
      <stop
         offset="51%"
         class="phon_e_maj_nas"
         id="stop7" />
    </linearGradient>
    <linearGradient
       id="gradient_wa"
       x1="0"
       x2="0"
       y1="0"
       y2="1">
      <stop
         offset="50%"
         class="phon_w"
         id="stop10" />
      <stop
         offset="51%"
         class="phon_a"
         id="stop12" />
    </linearGradient>
    <linearGradient
       id="gradient_h_maji"
       x1="0"
       x2="0"
       y1="0"
       y2="1">
      <stop
         offset="50%"
         class="phon_h_maj"
         id="stop15" />
      <stop
         offset="51%"
         class="phon_i"
         id="stop17" />
    </linearGradient>
    <linearGradient
       id="gradient_ks"
       x1="0"
       x2="0"
       y1="0"
       y2="1">
      <stop
         offset="50%"
         class="phon_k"
         id="stop20" />
      <stop
         offset="51%"
         class="phon_s"
         id="stop22" />
    </linearGradient>
    <linearGradient
       id="gradient_gz"
       x1="0"
       x2="0"
       y1="0"
       y2="1">
      <stop
         offset="50%"
         class="phon_g"
         id="stop25" />
      <stop
         offset="51%"
         class="phon_z"
         id="stop27" />
    </linearGradient>
    <linearGradient
       id="gradient_nj"
       x1="0"
       x2="0"
       y1="0"
       y2="1">
      <stop
         offset="50%"
         class="phon_n"
         id="stop30" />
      <stop
         offset="51%"
         class="phon_j"
         id="stop32" />
    </linearGradient>
    <linearGradient
       id="gradient_dz_maj"
       x1="0"
       x2="0"
       y1="0"
       y2="1">
      <stop
         offset="50%"
         class="phon_d"
         id="stop35" />
      <stop
         offset="51%"
         class="phon_z_maj"
         id="stop37" />
    </linearGradient>
  </defs>
<style
     type="text/css">
     svg {
        background-color: black;
    }
   .svgPhonClick:hover {
      cursor: pointer;
      stroke: rgb(135, 158, 133);
      stroke-width: 2px;
   }
  </style>
  <rect
     onclick="top.recupPhon(this.id)"
     ry="2.5"
     id="rect_i"
     class="svgPhonClick phon_i"
     width="117.20407"
     height="51.792015"
     x="32.230473"
     y="24.875237" />
  <rect
     y="112.04578"
     x="32.230473"
     height="51.792015"
     width="117.20407"
     id="rect_y"
     class="svgPhonClick phon_y"
     onclick="top.recupPhon(this.id)"
     ry="2.5" />
  <rect
     onclick="top.recupPhon(this.id)"
     ry="2.5"
     id="rect_e"
     class="svgPhonClick phon_e"
     width="117.20407"
     height="51.792015"
     x="230.9847"
     y="24.875237" />
  <rect
     y="112.04578"
     x="230.9847"
     height="51.792015"
     width="117.20407"
     id="rect_2"
     class="svgPhonClick phon_2"
     onclick="top.recupPhon(this.id)"
     ry="2.5" />
  <rect
     onclick="top.recupPhon(this.id)"
     ry="2.5"
     id="rect_arobase"
     class="svgPhonClick phon_arobase"
     width="117.20407"
     height="51.792015"
     x="230.9847"
     y="199.20258" />
  <rect
     y="286.8938"
     x="230.9847"
     height="51.792015"
     width="117.20407"
     id="rect_e_maj_nas"
     class="svgPhonClick phon_e_maj_nas"
     onclick="top.recupPhon(this.id)"
     ry="2.5" />
  <rect
     onclick="top.recupPhon(this.id)"
     ry="2.5"
     id="rect_e_maj"
     class="svgPhonClick phon_e_maj"
     width="117.20407"
     height="51.792015"
     x="428.67007"
     y="24.875237" />
  <rect
     y="112.04578"
     x="428.67007"
     height="51.792015"
     width="117.20407"
     id="rect_9"
     class="svgPhonClick phon_9"
     onclick="top.recupPhon(this.id)"
     ry="2.5" />
  <rect
     onclick="top.recupPhon(this.id)"
     ry="2.5"
     id="rect_9_nas"
     class="svgPhonClick phon_9_nas"
     width="117.20407"
     height="51.792015"
     x="428.67007"
     y="286.8938" />
  <rect
     y="24.875237"
     x="626.35547"
     height="51.792015"
     width="117.20407"
     id="rect_a"
     class="svgPhonClick phon_a"
     onclick="top.recupPhon(this.id)"
     ry="2.5" />
  <rect
     onclick="top.recupPhon(this.id)"
     ry="2.5"
     id="rect_a_maj_nas"
     class="svgPhonClick phon_a_maj_nas"
     width="117.20407"
     height="51.792015"
     x="626.35547"
     y="286.8938" />
  <rect
     y="24.875237"
     x="823.05463"
     height="51.792015"
     width="117.20407"
     id="rect_a_maj"
     class="svgPhonClick phon_a_maj"
     onclick="top.recupPhon(this.id)"
     ry="2.5" />
  <rect
     onclick="top.recupPhon(this.id)"
     ry="2.5"
     id="rect_o_maj"
     class="svgPhonClick phon_o_maj"
     width="117.20407"
     height="51.792015"
     x="1020.6849"
     y="24.875237" />
  <rect
     y="112.04578"
     x="1020.6849"
     height="51.792015"
     width="117.20407"
     id="rect_o"
     class="svgPhonClick phon_o"
     onclick="top.recupPhon(this.id)"
     ry="2.5" />
  <rect
     onclick="top.recupPhon(this.id)"
     ry="2.5"
     id="rect_o_maj_nas"
     class="svgPhonClick phon_o_maj_nas"
     width="117.20407"
     height="51.792015"
     x="1020.6849"
     y="286.8938" />
  <rect
     y="112.04578"
     x="1219.3564"
     height="51.792015"
     width="117.20407"
     id="rect_u"
     class="svgPhonClick phon_u"
     onclick="top.recupPhon(this.id)"
     ry="2.5" />
  <rect
     onclick="top.recupPhon(this.id)"
     ry="2.5"
     id="rect_wa"
     class="svgPhonClick phon_wa"
     style="fill:url(#gradient_wa);"
     width="117.20407"
     height="51.792015"
     x="1219.3564"
     y="199.20258" />
  <rect
     y="286.8938"
     x="1219.3564"
     height="51.792015"
     width="117.20407"
     id="rect_we_maj_nas"
     style="fill:url(#gradient_we_maj_nas);"
     class="svgPhonClick phon_we_maj_nas"
     onclick="top.recupPhon(this.id)"
     ry="2.5" />
  <rect
     y="443.05585"
     x="32.230473"
     height="51.792015"
     width="117.20407"
     id="rect_j"
     class="svgPhonClick phon_j"
     onclick="top.recupPhon(this.id)"
     ry="2.5" />
  <rect
     onclick="top.recupPhon(this.id)"
     ry="2.5"
     id="rect_h_maj"
     class="svgPhonClick phon_h_maj"
     width="117.20407"
     height="51.792015"
     x="32.230473"
     y="528.70575" />
  <rect
     y="790.28625"
     x="32.230473"
     height="51.792015"
     width="117.20407"
     id="rect_nj"
     style="fill:url(#gradient_nj);"
     class="svgPhonClick phon_nj"
     onclick="top.recupPhon(this.id)"
     ry="2.5" />
  <rect
     onclick="top.recupPhon(this.id)"
     ry="2.5"
     id="rect_p"
     class="svgPhonClick phon_p"
     width="117.20407"
     height="51.792015"
     x="181.28238"
     y="617.9314" />
  <rect
     y="705.10193"
     x="181.28238"
     height="51.792015"
     width="117.20407"
     id="rect_b"
     class="svgPhonClick phon_b"
     onclick="top.recupPhon(this.id)"
     ry="2.5" />
  <rect
     onclick="top.recupPhon(this.id)"
     ry="2.5"
     id="rect_m"
     class="svgPhonClick phon_m"
     width="117.20407"
     height="51.792015"
     x="181.28238"
     y="790.28625" />
  <rect
     y="617.9314"
     x="329.26544"
     height="51.792015"
     width="117.20407"
     id="rect_t"
     class="svgPhonClick phon_t"
     onclick="top.recupPhon(this.id)"
     ry="2.5" />
  <rect
     onclick="top.recupPhon(this.id)"
     ry="2.5"
     id="rect_d"
     class="svgPhonClick phon_d"
     width="117.20407"
     height="51.792015"
     x="329.26544"
     y="705.10193" />
  <rect
     y="790.28625"
     x="329.26544"
     height="51.792015"
     width="117.20407"
     id="rect_n"
     class="svgPhonClick phon_n"
     onclick="top.recupPhon(this.id)"
     ry="2.5" />
  <rect
     onclick="top.recupPhon(this.id)"
     ry="2.5"
     id="rect_l"
     class="svgPhonClick phon_l"
     width="117.20407"
     height="51.792015"
     x="329.26544"
     y="878.48438" />
  <rect
     y="617.9314"
     x="476.28979"
     height="51.792015"
     width="117.20407"
     id="rect_k"
     class="svgPhonClick phon_k"
     onclick="top.recupPhon(this.id)"
     ry="2.5" />
  <rect
     onclick="top.recupPhon(this.id)"
     ry="2.5"
     id="rect_g"
     class="svgPhonClick phon_g"
     width="117.20407"
     height="51.792015"
     x="476.28979"
     y="705.10193" />
  <rect
     y="790.28625"
     x="476.28979"
     height="51.792015"
     width="117.20407"
     id="rect_n_maj"
     class="svgPhonClick phon_n_maj"
     onclick="top.recupPhon(this.id)"
     ry="2.5" />
  <rect
     onclick="top.recupPhon(this.id)"
     ry="2.5"
     id="rect_r_maj"
     class="svgPhonClick phon_r_maj"
     width="117.20407"
     height="51.792015"
     x="476.28979"
     y="878.48438" />
  <rect
     y="617.9314"
     x="626.32794"
     height="51.792015"
     width="117.20407"
     id="rect_ks"
     style="fill:url(#gradient_ks);"
     class="svgPhonClick phon_ks"
     onclick="top.recupPhon(this.id)"
     ry="2.5" />
  <rect
     onclick="top.recupPhon(this.id)"
     ry="2.5"
     id="rect_gz"
     style="fill:url(#gradient_gz);"
     class="svgPhonClick phon_gz"
     width="117.20407"
     height="51.792015"
     x="626.32794"
     y="705.10193" />
  <rect
     y="617.9314"
     x="774.33856"
     height="51.792015"
     width="117.20407"
     id="rect_s"
     class="svgPhonClick phon_s"
     onclick="top.recupPhon(this.id)"
     ry="2.5" />
  <rect
     onclick="top.recupPhon(this.id)"
     ry="2.5"
     id="rect_z"
     class="svgPhonClick phon_z"
     width="117.20407"
     height="51.792015"
     x="774.33856"
     y="705.10193" />
  <rect
     y="617.9314"
     x="922.34912"
     height="51.792015"
     width="117.20407"
     id="rect_s_maj"
     class="svgPhonClick phon_s_maj"
     onclick="top.recupPhon(this.id)"
     ry="2.5" />
  <rect
     onclick="top.recupPhon(this.id)"
     ry="2.5"
     id="rect_dz_maj"
     style="fill:url(#gradient_dz_maj);"
     class="svgPhonClick phon_dz_maj"
     width="117.20407"
     height="51.792015"
     x="922.34912"
     y="878.48438" />
  <rect
     y="617.9314"
     x="1070.3047"
     height="51.792015"
     width="117.20407"
     id="rect_f"
     class="svgPhonClick phon_f"
     onclick="top.recupPhon(this.id)"
     ry="2.5" />
  <rect
     onclick="top.recupPhon(this.id)"
     ry="2.5"
     id="rect_v"
     class="svgPhonClick phon_v"
     width="117.20407"
     height="51.792015"
     x="1070.3047"
     y="705.10193" />
  <rect
     y="705.10193"
     x="922.34912"
     height="51.792015"
     width="117.20407"
     id="rect_z_maj"
     class="svgPhonClick phon_z_maj"
     onclick="top.recupPhon(this.id)"
     ry="2.5" />
  <rect
     y="443.05585"
     x="1217.3015"
     height="51.792015"
     width="117.20407"
     id="rect_w"
     class="svgPhonClick phon_w"
     onclick="top.recupPhon(this.id)"
     ry="2.5" />
  <path
     style="fill:#ffffff;stroke:#ffffff;stroke-width:5px;stroke-linecap:butt;stroke-linejoin:miter;stroke-opacity:1"
     d="M 1.433689,400 H 1370.6066"
     id="path3801"
     inkscape:connector-curvature="0" />

    <text
     xml:space="preserve"
     style="cursor:pointer;font-style:normal;font-weight:normal;font-size:40px;line-height:1.25;font-family:sans-serif;letter-spacing:0px;word-spacing:0px;fill:#000000;fill-opacity:1;stroke:none"
     x="620"
     y="1020"
     id="text5403"
     onclick="siteKinephones()"><tspan
    sodipodi:role="line"
    id="tspan5401"
    x="1140"
    y="940"
    style="font-size:14px;fill:#ffffff">Caleb Gattegno (voir uepd.org)</tspan></text>
    
     <script
     id="script89">
      function siteUepd(){
         window.open(&quot;https://www.uneeducationpourdemain.org/&quot;);
      }

      function recupPhon(identifiant){
         var col;
         if (rect2phon[identifiant][&quot;color&quot;] == &quot;bicolor&quot;) {
            col=rect2phon[identifiant][&quot;collist&quot;];
         } else if (rect2phon[identifiant][&quot;color&quot;] == &quot;bicolor2&quot;) {
            col=rect2phon[identifiant][&quot;collist&quot;];
         } else {
            col = rect2phon[identifiant][&quot;color&quot;];
         };
         window.alert('Identifiant : '+identifiant+'\nPhonème : ['+rect2phon[identifiant][&quot;api&quot;]+']\nCouleur : '+col);
      };

      var rect2phon = {
        &quot;rect_1&quot;:{&quot;phon&quot;:&quot;phon_1&quot;, &quot;color&quot;:&quot;#505050&quot;, &quot;api&quot;:&quot;ɨ&quot;, &quot;audio&quot;:&quot;audio/audio_1.ogg&quot;, &quot;wiki&quot;:&quot;https://fr.wikipedia.org/wiki/Voyelle_ferm%C3%A9e_centrale_non_arrondie&quot;},
        &quot;rect_2&quot;:{&quot;phon&quot;:&quot;phon_2&quot;, &quot;color&quot;:&quot;#c9004d&quot;, &quot;api&quot;:&quot;ø&quot;, &quot;audio&quot;:&quot;audio/audio_2.ogg&quot;, &quot;wiki&quot;:&quot;https://fr.wikipedia.org/wiki/Voyelle_mi-ferm%C3%A9e_ant%C3%A9rieure_arrondie&quot;},
        &quot;rect_3&quot;:{&quot;phon&quot;:&quot;phon_3&quot;, &quot;color&quot;:&quot;#ef2d52&quot;, &quot;api&quot;:&quot;ɜ&quot;, &quot;audio&quot;:&quot;audio/audio_3.ogg&quot;, &quot;wiki&quot;:&quot;https://fr.wikipedia.org/wiki/Voyelle_mi-ouverte_centrale_non_arrondie&quot;},
        &quot;rect_3_slash&quot;:{&quot;phon&quot;:&quot;phon_3_slash&quot;, &quot;color&quot;:&quot;lightgray&quot;, &quot;api&quot;:&quot;ɞ&quot;, &quot;audio&quot;:&quot;audio/audio_3_slash.ogg&quot;, &quot;wiki&quot;:&quot;https://fr.wikipedia.org/wiki/Voyelle_mi-ouverte_centrale_arrondie&quot;},
        &quot;rect_3_long&quot;:{&quot;phon&quot;:&quot;phon_3_long&quot;, &quot;color&quot;:&quot;#ef2d52&quot;, &quot;api&quot;:&quot;ɜː&quot;, &quot;audio&quot;:&quot;audio/audio_3_long.ogg&quot;, &quot;wiki&quot;:&quot;&quot;, &quot;name&quot;:&quot;Voyelle mi-ouverte centrale non arrondie longue&quot;},
        &quot;rect_3_rho&quot;:{&quot;phon&quot;:&quot;phon_3_rho&quot;, &quot;color&quot;:&quot;#ed727e&quot;, &quot;api&quot;:&quot;ɝ&quot;, &quot;audio&quot;:&quot;&quot;, &quot;wiki&quot;:&quot;&quot;, &quot;name&quot;:&quot;&quot;},
        &quot;rect_4&quot;:{&quot;phon&quot;:&quot;phon_4&quot;, &quot;color&quot;:&quot;#c3ffff&quot;, &quot;api&quot;:&quot;ɾ&quot;, &quot;audio&quot;:&quot;audio/audio_4.ogg&quot;, &quot;wiki&quot;:&quot;https://fr.wikipedia.org/wiki/Consonne_battue_alv%C3%A9olaire_vois%C3%A9e&quot;},
        &quot;rect_5&quot;:{&quot;phon&quot;:&quot;phon_5&quot;, &quot;color&quot;:&quot;lightgray&quot;, &quot;api&quot;:&quot;lˠ&quot;, &quot;audio&quot;:&quot;audio/audio_5.ogg&quot;, &quot;wiki&quot;:&quot;https://fr.wikipedia.org/wiki/Consonne_spirante_lat%C3%A9rale_alv%C3%A9olaire_v%C3%A9laris%C3%A9e_vois%C3%A9e&quot;},
        &quot;rect_6&quot;:{&quot;phon&quot;:&quot;phon_6&quot;, &quot;color&quot;:&quot;lightgray&quot;, &quot;api&quot;:&quot;ɐ&quot;, &quot;audio&quot;:&quot;audio/audio_6.ogg&quot;, &quot;wiki&quot;:&quot;https://fr.wikipedia.org/wiki/Voyelle_pr%C3%A9-ouverte_centrale&quot;},
        &quot;rect_7&quot;:{&quot;phon&quot;:&quot;phon_7&quot;, &quot;color&quot;:&quot;#B6DB5A&quot;, &quot;api&quot;:&quot;ɤ&quot;, &quot;audio&quot;:&quot;audio/audio_7.ogg&quot;, &quot;wiki&quot;:&quot;https://fr.wikipedia.org/wiki/Voyelle_mi-ferm%C3%A9e_post%C3%A9rieure_non_arrondie&quot;},
        &quot;rect_8&quot;:{&quot;phon&quot;:&quot;phon_8&quot;, &quot;color&quot;:&quot;lightgray&quot;, &quot;api&quot;:&quot;ɵ&quot;, &quot;audio&quot;:&quot;audio/audio_8.ogg&quot;, &quot;wiki&quot;:&quot;https://fr.wikipedia.org/wiki/Voyelle_mi-ferm%C3%A9e_centrale_arrondie&quot;},
        &quot;rect_9&quot;:{&quot;phon&quot;:&quot;phon_9&quot;, &quot;color&quot;:&quot;#ea6b76&quot;, &quot;api&quot;:&quot;œ&quot;, &quot;audio&quot;:&quot;audio/audio_9.ogg&quot;, &quot;wiki&quot;:&quot;https://fr.wikipedia.org/wiki/Voyelle_mi-ouverte_ant%C3%A9rieure_arrondie&quot;},
        &quot;rect_9_maj&quot;:{&quot;phon&quot;:&quot;phon_9_maj&quot;, &quot;color&quot;:&quot;lightgray&quot;, &quot;api&quot;:&quot;ɶ&quot;, &quot;audio&quot;:&quot;audio/audio_9_maj.ogg&quot;, &quot;wiki&quot;:&quot;https://fr.wikipedia.org/wiki/Voyelle_ouverte_ant%C3%A9rieure_arrondie&quot;},
        &quot;rect_9_nas&quot;:{&quot;phon&quot;:&quot;phon_9_nas&quot;, &quot;color&quot;:&quot;#f89f7d&quot;, &quot;api&quot;:&quot;œ̃&quot;, &quot;audio&quot;:&quot;audio/audio_9_nas.ogg&quot;, &quot;wiki&quot;:&quot;&quot;, &quot;name&quot;:&quot;Voyelle mi-ouverte antérieure arrondie nasalisée&quot;},
        &quot;rect_a&quot;:{&quot;phon&quot;:&quot;phon_a&quot;, &quot;color&quot;:&quot;#ffffff&quot;, &quot;api&quot;:&quot;a&quot;, &quot;audio&quot;:&quot;audio/audio_a.ogg&quot;, &quot;wiki&quot;:&quot;https://fr.wikipedia.org/wiki/Voyelle_ouverte_ant%C3%A9rieure_non_arrondie&quot;},
        &quot;rect_a_centr&quot;:{&quot;phon&quot;:&quot;phon_a_centr&quot;, &quot;color&quot;:&quot;lightgray&quot;, &quot;api&quot;:&quot;ä&quot;, &quot;audio&quot;:&quot;audio/audio_a_centr.ogg&quot;, &quot;wiki&quot;:&quot;https://fr.wikipedia.org/wiki/Voyelle_ouverte_centrale_non_arrondie&quot;},
        &quot;rect_a_maj&quot;:{&quot;phon&quot;:&quot;phon_a_maj&quot;, &quot;color&quot;:&quot;#922289&quot;, &quot;api&quot;:&quot;ɑ&quot;, &quot;audio&quot;:&quot;audio/audio_a_maj.ogg&quot;, &quot;wiki&quot;:&quot;https://fr.wikipedia.org/wiki/Voyelle_ouverte_post%C3%A9rieure_non_arrondie&quot;},
        &quot;rect_a_maj_long&quot;:{&quot;phon&quot;:&quot;phon_a_maj_long&quot;, &quot;color&quot;:&quot;#922289&quot;, &quot;api&quot;:&quot;ɑ:&quot;, &quot;audio&quot;:&quot;audio/audio_a_maj_long.ogg&quot;, &quot;wiki&quot;:&quot;&quot;, &quot;name&quot;:&quot;Voyelle ouverte postérieure non arrondie longue&quot;},
        &quot;rect_a_maj_nas&quot;:{&quot;phon&quot;:&quot;phon_a_maj_nas&quot;, &quot;color&quot;:&quot;#f3bbcd&quot;, &quot;api&quot;:&quot;ɑ̃&quot;, &quot;audio&quot;:&quot;audio/audio_a_maj_nas.ogg&quot;, &quot;wiki&quot;:&quot;&quot;, &quot;name&quot;:&quot;Voyelle ouverte postérieure non arrondie nasalisée&quot;},
        &quot;rect_arobase&quot;:{&quot;phon&quot;:&quot;phon_arobase&quot;, &quot;color&quot;:&quot;#fef200&quot;, &quot;api&quot;:&quot;ə&quot;, &quot;audio&quot;:&quot;audio/audio_arobase.ogg&quot;, &quot;wiki&quot;:&quot;https://fr.wikipedia.org/wiki/Voyelle_moyenne_centrale&quot;},
        &quot;rect_arobase_rho&quot;:{&quot;phon&quot;:&quot;phon_arobase_rho&quot;, &quot;color&quot;:&quot;#ffcc99&quot;, &quot;api&quot;:&quot;ɚ&quot;, &quot;audio&quot;:&quot;audio/audio_arobase_rho.ogg&quot;, &quot;wiki&quot;:&quot;https://fr.wikipedia.org/wiki/Voyelle_rhotique&quot;},
        &quot;rect_arobase_slash&quot;:{&quot;phon&quot;:&quot;phon_arobase_slash&quot;, &quot;color&quot;:&quot;lightgray&quot;, &quot;api&quot;:&quot;ɘ&quot;, &quot;audio&quot;:&quot;audio/audio_arobase_slash.ogg&quot;, &quot;wiki&quot;:&quot;https://fr.wikipedia.org/wiki/Voyelle_mi-ferm%C3%A9e_centrale_non_arrondie&quot;},
        &quot;rect_b&quot;:{&quot;phon&quot;:&quot;phon_b&quot;, &quot;color&quot;:&quot;#156b5e&quot;, &quot;api&quot;:&quot;b&quot;, &quot;audio&quot;:&quot;audio/audio_b.ogg&quot;, &quot;wiki&quot;:&quot;https://fr.wikipedia.org/wiki/Consonne_occlusive_bilabiale_vois%C3%A9e&quot;},
        &quot;rect_b_chev&quot;:{&quot;phon&quot;:&quot;phon_b_chev&quot;, &quot;color&quot;:&quot;lightgray&quot;, &quot;api&quot;:&quot;ɓ&quot;, &quot;audio&quot;:&quot;audio/audio_b_chev.ogg&quot;, &quot;wiki&quot;:&quot;https://fr.wikipedia.org/wiki/Consonne_occlusive_injective_bilabiale_vois%C3%A9e&quot;},
        &quot;rect_b_maj&quot;:{&quot;phon&quot;:&quot;phon_b_maj&quot;, &quot;color&quot;:&quot;#f87407&quot;, &quot;api&quot;:&quot;β&quot;, &quot;audio&quot;:&quot;audio/audio_b_maj.ogg&quot;, &quot;wiki&quot;:&quot;https://fr.wikipedia.org/wiki/Consonne_fricative_bilabiale_vois%C3%A9e&quot;},
        &quot;rect_b_maj_slash&quot;:{&quot;phon&quot;:&quot;phon_b_maj_slash&quot;, &quot;color&quot;:&quot;lightgray&quot;, &quot;api&quot;:&quot;ʙ&quot;, &quot;audio&quot;:&quot;audio/audio_b_maj_slash.ogg&quot;, &quot;wiki&quot;:&quot;https://fr.wikipedia.org/wiki/Consonne_roul%C3%A9e_bilabiale_vois%C3%A9e&quot;},
        &quot;rect_c&quot;:{&quot;phon&quot;:&quot;phon_c&quot;, &quot;color&quot;:&quot;lightgray&quot;, &quot;api&quot;:&quot;c&quot;, &quot;audio&quot;:&quot;audio/audio_c.ogg&quot;, &quot;wiki&quot;:&quot;https://fr.wikipedia.org/wiki/Consonne_occlusive_palatale_sourde&quot;},
        &quot;rect_c_maj&quot;:{&quot;phon&quot;:&quot;phon_c_maj&quot;, &quot;color&quot;:&quot;lightgray&quot;, &quot;api&quot;:&quot;ç&quot;, &quot;audio&quot;:&quot;audio/audio_c_maj.ogg&quot;, &quot;wiki&quot;:&quot;https://fr.wikipedia.org/wiki/Consonne_fricative_palatale_sourde&quot;},
        &quot;rect_cbrack&quot;:{&quot;phon&quot;:&quot;phon_cbrack&quot;, &quot;color&quot;:&quot;#dc8f86&quot;, &quot;api&quot;:&quot;æ&quot;, &quot;audio&quot;:&quot;audio/audio_cbrack.ogg&quot;, &quot;wiki&quot;:&quot;https://fr.wikipedia.org/wiki/Voyelle_pr%C3%A9-ouverte_ant%C3%A9rieure_non_arrondie&quot;},
        &quot;rect_cbrack2&quot;:{&quot;phon&quot;:&quot;phon_cbrack2&quot;, &quot;color&quot;:&quot;lightgray&quot;, &quot;api&quot;:&quot;ʉ&quot;, &quot;audio&quot;:&quot;audio/audio_cbrack2.ogg&quot;, &quot;wiki&quot;:&quot;https://fr.wikipedia.org/wiki/Voyelle_ferm%C3%A9e_centrale_arrondie&quot;},
        &quot;rect_chevron_slash&quot;:{&quot;phon&quot;:&quot;phon_chevron_slash&quot;, &quot;color&quot;:&quot;lightgray&quot;, &quot;api&quot;:&quot;ʢ&quot;, &quot;audio&quot;:&quot;audio/audio_chevron_slash.ogg&quot;, &quot;wiki&quot;:&quot;https://fr.wikipedia.org/wiki/Consonne_fricative_%C3%A9piglottale_vois%C3%A9e&quot;},
        &quot;rect_chevron2_slash&quot;:{&quot;phon&quot;:&quot;phon_chevron2_slash&quot;, &quot;color&quot;:&quot;lightgray&quot;, &quot;api&quot;:&quot;ʡ&quot;, &quot;audio&quot;:&quot;audio/audio_chevron2_slash.ogg&quot;, &quot;wiki&quot;:&quot;https://fr.wikipedia.org/wiki/Consonne_occlusive_%C3%A9piglottale_sourde&quot;},
        &quot;rect_d&quot;:{&quot;phon&quot;:&quot;phon_d&quot;, &quot;color&quot;:&quot;#0c843d&quot;, &quot;api&quot;:&quot;d&quot;, &quot;audio&quot;:&quot;audio/audio_d.ogg&quot;, &quot;wiki&quot;:&quot;https://fr.wikipedia.org/wiki/Consonne_occlusive_alv%C3%A9olaire_vois%C3%A9e&quot;},
        &quot;rect_d_chev&quot;:{&quot;phon&quot;:&quot;phon_d_chev&quot;, &quot;color&quot;:&quot;lightgray&quot;, &quot;api&quot;:&quot;ɗ&quot;, &quot;audio&quot;:&quot;audio/audio_d_chev.ogg&quot;, &quot;wiki&quot;:&quot;https://fr.wikipedia.org/wiki/Consonne_occlusive_injective_alv%C3%A9olaire_vois%C3%A9e&quot;},
        &quot;rect_d_maj&quot;:{&quot;phon&quot;:&quot;phon_d_maj&quot;, &quot;color&quot;:&quot;#d65c81&quot;, &quot;api&quot;:&quot;ð&quot;, &quot;audio&quot;:&quot;audio/audio_d_maj.ogg&quot;, &quot;wiki&quot;:&quot;https://fr.wikipedia.org/wiki/Consonne_fricative_dentale_vois%C3%A9e&quot;},
        &quot;rect_d_retr&quot;:{&quot;phon&quot;:&quot;phon_d_retr&quot;, &quot;color&quot;:&quot;lightgray&quot;, &quot;api&quot;:&quot;ɖ&quot;, &quot;audio&quot;:&quot;audio/audio_d_retr.oga&quot;, &quot;wiki&quot;:&quot;https://fr.wikipedia.org/wiki/Consonne_occlusive_r%C3%A9troflexe_vois%C3%A9e&quot;},
        &quot;rect_e&quot;:{&quot;phon&quot;:&quot;phon_e&quot;, &quot;color&quot;:&quot;#44a1ca&quot;, &quot;api&quot;:&quot;e&quot;, &quot;audio&quot;:&quot;audio/audio_e.ogg&quot;, &quot;wiki&quot;:&quot;https://fr.wikipedia.org/wiki/Voyelle_mi-ferm%C3%A9e_ant%C3%A9rieure_non_arrondie&quot;},
        &quot;rect_e_maj&quot;:{&quot;phon&quot;:&quot;phon_e_maj&quot;, &quot;color&quot;:&quot;#01b49e&quot;, &quot;api&quot;:&quot;ɛ&quot;, &quot;audio&quot;:&quot;audio/audio_e_maj.ogg&quot;, &quot;wiki&quot;:&quot;https://fr.wikipedia.org/wiki/Voyelle_mi-ouverte_ant%C3%A9rieure_non_arrondie&quot;},
        &quot;rect_e_maj_nas&quot;:{&quot;phon&quot;:&quot;phon_e_maj_nas&quot;, &quot;color&quot;:&quot;#597fbf&quot;, &quot;api&quot;:&quot;ɛ̃&quot;, &quot;audio&quot;:&quot;audio/audio_e_maj_nas.ogg&quot;, &quot;wiki&quot;:&quot;&quot;, &quot;name&quot;:&quot;Voyelle mi-ouverte antérieure non arrondie nasalisée&quot;},
        &quot;rect_egal_slash&quot;:{&quot;phon&quot;:&quot;phon_egal_slash&quot;, &quot;color&quot;:&quot;lightgray&quot;, &quot;api&quot;:&quot;ǂ&quot;, &quot;audio&quot;:&quot;audio/audio_egal_slash.ogg&quot;, &quot;wiki&quot;:&quot;https://fr.wikipedia.org/wiki/Clic_alv%C3%A9olo-palatal&quot;},
        &quot;rect_exclam_slash&quot;:{&quot;phon&quot;:&quot;phon_exclam_slash&quot;, &quot;color&quot;:&quot;lightgray&quot;, &quot;api&quot;:&quot;ǃ&quot;, &quot;audio&quot;:&quot;audio/audio_exclam_slash.ogg&quot;, &quot;wiki&quot;:&quot;https://fr.wikipedia.org/wiki/Clic_post-alv%C3%A9olaire&quot;},
        &quot;rect_f&quot;:{&quot;phon&quot;:&quot;phon_f&quot;, &quot;color&quot;:&quot;#a897b7&quot;, &quot;api&quot;:&quot;f&quot;, &quot;audio&quot;:&quot;audio/audio_f.ogg&quot;, &quot;wiki&quot;:&quot;https://fr.wikipedia.org/wiki/Consonne_fricative_labio-dentale_sourde&quot;},
        &quot;rect_f_maj&quot;:{&quot;phon&quot;:&quot;phon_f_maj&quot;, &quot;color&quot;:&quot;lightgray&quot;, &quot;api&quot;:&quot;ɱ&quot;, &quot;audio&quot;:&quot;audio/audio_f_maj.ogg&quot;, &quot;wiki&quot;:&quot;https://fr.wikipedia.org/wiki/Consonne_nasale_labio-dentale_vois%C3%A9e&quot;},
        &quot;rect_g&quot;:{&quot;phon&quot;:&quot;phon_g&quot;, &quot;color&quot;:&quot;#929896&quot;, &quot;api&quot;:&quot;ɡ&quot;, &quot;audio&quot;:&quot;audio/audio_g.ogg&quot;, &quot;wiki&quot;:&quot;https://fr.wikipedia.org/wiki/Consonne_occlusive_v%C3%A9laire_vois%C3%A9e&quot;},
        &quot;rect_g_chev&quot;:{&quot;phon&quot;:&quot;phon_g_chev&quot;, &quot;color&quot;:&quot;lightgray&quot;, &quot;api&quot;:&quot;ɠ&quot;, &quot;audio&quot;:&quot;audio/audio_g_chev.ogg&quot;, &quot;wiki&quot;:&quot;https://fr.wikipedia.org/wiki/Consonne_occlusive_injective_v%C3%A9laire_vois%C3%A9e&quot;},
        &quot;rect_g_maj&quot;:{&quot;phon&quot;:&quot;phon_g_maj&quot;, &quot;color&quot;:&quot;lightgray&quot;, &quot;api&quot;:&quot;ɣ&quot;, &quot;audio&quot;:&quot;audio/audio_g_maj.ogg&quot;, &quot;wiki&quot;:&quot;https://fr.wikipedia.org/wiki/Consonne_fricative_v%C3%A9laire_vois%C3%A9e&quot;},
        &quot;rect_g_maj_slash&quot;:{&quot;phon&quot;:&quot;phon_g_maj_slash&quot;, &quot;color&quot;:&quot;lightgray&quot;, &quot;api&quot;:&quot;ɢ&quot;, &quot;audio&quot;:&quot;audio/audio_g_maj_slash.oga&quot;, &quot;wiki&quot;:&quot;https://fr.wikipedia.org/wiki/Consonne_occlusive_uvulaire_vois%C3%A9e&quot;},
        &quot;rect_g_maj_slash_chev&quot;:{&quot;phon&quot;:&quot;phon_g_maj_slash_chev&quot;, &quot;color&quot;:&quot;lightgray&quot;, &quot;api&quot;:&quot;ʛ&quot;, &quot;audio&quot;:&quot;audio/audio_g_maj_slash_chev.ogg&quot;, &quot;wiki&quot;:&quot;https://fr.wikipedia.org/wiki/Consonne_occlusive_injective_uvulaire&quot;},
        &quot;rect_h&quot;:{&quot;phon&quot;:&quot;phon_h&quot;, &quot;color&quot;:&quot;#d8e7d9&quot;, &quot;api&quot;:&quot;h&quot;, &quot;audio&quot;:&quot;audio/audio_h.ogg&quot;, &quot;wiki&quot;:&quot;https://fr.wikipedia.org/wiki/Consonne_fricative_glottale_sourde&quot;},
        &quot;rect_h_maj&quot;:{&quot;phon&quot;:&quot;phon_h_maj&quot;, &quot;color&quot;:&quot;#ffeba2&quot;, &quot;api&quot;:&quot;ɥ&quot;, &quot;audio&quot;:&quot;audio/audio_h_maj.ogg&quot;, &quot;wiki&quot;:&quot;https://fr.wikipedia.org/wiki/Consonne_spirante_labio-palatale_vois%C3%A9e&quot;},
        &quot;rect_h_maj_slash&quot;:{&quot;phon&quot;:&quot;phon_h_maj_slash&quot;, &quot;color&quot;:&quot;lightgray&quot;, &quot;api&quot;:&quot;ʜ&quot;, &quot;audio&quot;:&quot;audio/audio_h_maj_slash.ogg&quot;, &quot;wiki&quot;:&quot;https://fr.wikipedia.org/wiki/Consonne_fricative_%C3%A9piglottale_sourde&quot;},
        &quot;rect_h_slash&quot;:{&quot;phon&quot;:&quot;phon_h_slash&quot;, &quot;color&quot;:&quot;lightgray&quot;, &quot;api&quot;:&quot;ɦ&quot;, &quot;audio&quot;:&quot;audio/audio_h_slash.ogg&quot;, &quot;wiki&quot;:&quot;https://fr.wikipedia.org/wiki/Consonne_fricative_glottale_vois%C3%A9e&quot;},
        &quot;rect_i&quot;:{&quot;phon&quot;:&quot;phon_i&quot;, &quot;color&quot;:&quot;#e60004&quot;, &quot;api&quot;:&quot;i&quot;, &quot;audio&quot;:&quot;audio/audio_i.ogg&quot;, &quot;wiki&quot;:&quot;https://fr.wikipedia.org/wiki/Voyelle_ferm%C3%A9e_ant%C3%A9rieure_non_arrondie&quot;},
        &quot;rect_i_long&quot;:{&quot;phon&quot;:&quot;phon_i_long&quot;, &quot;color&quot;:&quot;#e60004&quot;, &quot;api&quot;:&quot;iː&quot;, &quot;audio&quot;:&quot;audio/audio_i_long.ogg&quot;, &quot;wiki&quot;:&quot;&quot;, &quot;name&quot;:&quot;Voyelle fermée antérieure non arrondie longue&quot;},
        &quot;rect_i_maj&quot;:{&quot;phon&quot;:&quot;phon_i_maj&quot;, &quot;color&quot;:&quot;#e7236d&quot;, &quot;api&quot;:&quot;ɪ&quot;, &quot;audio&quot;:&quot;audio/audio_i_maj.ogg&quot;, &quot;wiki&quot;:&quot;https://fr.wikipedia.org/wiki/Voyelle_pr%C3%A9-ferm%C3%A9e_ant%C3%A9rieure_non_arrondie&quot;},
        &quot;rect_interrog&quot;:{&quot;phon&quot;:&quot;phon_interrog&quot;, &quot;color&quot;:&quot;lightgray&quot;, &quot;api&quot;:&quot;ʔ&quot;, &quot;audio&quot;:&quot;audio/audio_interrog.ogg&quot;, &quot;wiki&quot;:&quot;https://fr.wikipedia.org/wiki/Coup_de_glotte&quot;},
        &quot;rect_interrog_slash&quot;:{&quot;phon&quot;:&quot;phon_interrog_slash&quot;, &quot;color&quot;:&quot;lightgray&quot;, &quot;api&quot;:&quot;ʕ&quot;, &quot;audio&quot;:&quot;audio/audio_interrog_slash.ogg&quot;, &quot;wiki&quot;:&quot;https://fr.wikipedia.org/wiki/Consonne_fricative_pharyngale_vois%C3%A9e&quot;},
        &quot;rect_j&quot;:{&quot;phon&quot;:&quot;phon_j&quot;, &quot;color&quot;:&quot;#f591ad&quot;, &quot;api&quot;:&quot;j&quot;, &quot;audio&quot;:&quot;audio/audio_j.ogg&quot;, &quot;wiki&quot;:&quot;https://fr.wikipedia.org/wiki/Consonne_spirante_palatale_vois%C3%A9e&quot;},
        &quot;rect_j_slash&quot;:{&quot;phon&quot;:&quot;phon_j_slash&quot;, &quot;color&quot;:&quot;lightgray&quot;, &quot;api&quot;:&quot;ʝ&quot;, &quot;audio&quot;:&quot;audio/audio_j_slash.ogg&quot;, &quot;wiki&quot;:&quot;https://fr.wikipedia.org/wiki/Consonne_fricative_palatale_vois%C3%A9e&quot;},
        &quot;rect_j_maj_slash&quot;:{&quot;phon&quot;:&quot;phon_j_maj_slash&quot;, &quot;color&quot;:&quot;lightgray&quot;, &quot;api&quot;:&quot;ɟ&quot;, &quot;audio&quot;:&quot;audio/audio_j_maj_slash.ogg&quot;, &quot;wiki&quot;:&quot;https://fr.wikipedia.org/wiki/Consonne_occlusive_palatale_vois%C3%A9e&quot;},
        &quot;rect_j_maj_slash_chev&quot;:{&quot;phon&quot;:&quot;phon_j_maj_slash_chev&quot;, &quot;color&quot;:&quot;lightgray&quot;, &quot;api&quot;:&quot;ʄ&quot;, &quot;audio&quot;:&quot;audio/audio_j_maj_slash_chev.ogg&quot;, &quot;wiki&quot;:&quot;https://fr.wikipedia.org/wiki/Consonne_occlusive_injective_palatale_vois%C3%A9e&quot;},
        &quot;rect_k&quot;:{&quot;phon&quot;:&quot;phon_k&quot;, &quot;color&quot;:&quot;#feae21&quot;, &quot;api&quot;:&quot;k&quot;, &quot;audio&quot;:&quot;audio/audio_k.ogg&quot;, &quot;wiki&quot;:&quot;https://fr.wikipedia.org/wiki/Consonne_occlusive_v%C3%A9laire_sourde&quot;},
        &quot;rect_k_chev2&quot;:{&quot;phon&quot;:&quot;phon_k_chev2&quot;, &quot;color&quot;:&quot;lightgray&quot;, &quot;api&quot;:&quot;kʼ&quot;, &quot;audio&quot;:&quot;audio/audio_k_chev2.ogg&quot;, &quot;wiki&quot;:&quot;https://fr.wikipedia.org/wiki/Consonne_occlusive_%C3%A9jective_v%C3%A9laire&quot;},
        &quot;rect_k_h&quot;:{&quot;phon&quot;:&quot;phon_k_h&quot;, &quot;color&quot;:&quot;#ff3399&quot;, &quot;api&quot;:&quot;kʰ&quot;, &quot;audio&quot;:&quot;audio/audio_k_h.ogg&quot;, &quot;wiki&quot;:&quot;&quot;, &quot;name&quot;:&quot;Consonne occlusive vélaire sourde aspirée&quot;},
        &quot;rect_k_maj&quot;:{&quot;phon&quot;:&quot;phon_k_maj&quot;, &quot;color&quot;:&quot;lightgray&quot;, &quot;api&quot;:&quot;ɬ&quot;, &quot;audio&quot;:&quot;audio/audio_k_maj.ogg&quot;, &quot;wiki&quot;:&quot;https://fr.wikipedia.org/wiki/Consonne_fricative_lat%C3%A9rale_alv%C3%A9olaire_sourde&quot;},
        &quot;rect_k_maj_slash&quot;:{&quot;phon&quot;:&quot;phon_k_maj_slash&quot;, &quot;color&quot;:&quot;lightgray&quot;, &quot;api&quot;:&quot;ɮ&quot;, &quot;audio&quot;:&quot;audio/audio_k_maj_slash.ogg&quot;, &quot;wiki&quot;:&quot;https://fr.wikipedia.org/wiki/Consonne_fricative_lat%C3%A9rale_alv%C3%A9olaire_vois%C3%A9e&quot;},
        &quot;rect_l&quot;:{&quot;phon&quot;:&quot;phon_l&quot;, &quot;color&quot;:&quot;#007ab6&quot;, &quot;api&quot;:&quot;l&quot;, &quot;audio&quot;:&quot;audio/audio_l.ogg&quot;, &quot;wiki&quot;:&quot;https://fr.wikipedia.org/wiki/Consonne_spirante_lat%C3%A9rale_alv%C3%A9olaire_vois%C3%A9e&quot;},
        &quot;rect_l_maj&quot;:{&quot;phon&quot;:&quot;phon_l_maj&quot;, &quot;color&quot;:&quot;lightgray&quot;, &quot;api&quot;:&quot;ʎ&quot;, &quot;audio&quot;:&quot;audio/audio_l_maj.ogg&quot;, &quot;wiki&quot;:&quot;https://fr.wikipedia.org/wiki/Consonne_spirante_lat%C3%A9rale_palatale_vois%C3%A9e&quot;},
        &quot;rect_l_maj_slash&quot;:{&quot;phon&quot;:&quot;phon_l_maj_slash&quot;, &quot;color&quot;:&quot;lightgray&quot;, &quot;api&quot;:&quot;ʟ&quot;, &quot;audio&quot;:&quot;audio/audio_l_maj_slash.ogg&quot;, &quot;wiki&quot;:&quot;https://fr.wikipedia.org/wiki/Consonne_spirante_lat%C3%A9rale_v%C3%A9laire_vois%C3%A9e&quot;},
        &quot;rect_l_retr&quot;:{&quot;phon&quot;:&quot;phon_l_retr&quot;, &quot;color&quot;:&quot;lightgray&quot;, &quot;api&quot;:&quot;ɭ&quot;, &quot;audio&quot;:&quot;audio/audio_l_retr.ogg&quot;, &quot;wiki&quot;:&quot;https://fr.wikipedia.org/wiki/Consonne_spirante_lat%C3%A9rale_r%C3%A9troflexe_vois%C3%A9e&quot;},
        &quot;rect_m&quot;:{&quot;phon&quot;:&quot;phon_m&quot;, &quot;color&quot;:&quot;#ed5128&quot;, &quot;api&quot;:&quot;m&quot;, &quot;audio&quot;:&quot;audio/audio_m.ogg&quot;, &quot;wiki&quot;:&quot;https://fr.wikipedia.org/wiki/Consonne_nasale_bilabiale_vois%C3%A9e&quot;},
        &quot;rect_m_maj&quot;:{&quot;phon&quot;:&quot;phon_m_maj&quot;, &quot;color&quot;:&quot;#23e915&quot;, &quot;api&quot;:&quot;ɯ&quot;, &quot;audio&quot;:&quot;audio/audio_m_maj.ogg&quot;, &quot;wiki&quot;:&quot;https://fr.wikipedia.org/wiki/Voyelle_ferm%C3%A9e_post%C3%A9rieure_non_arrondie&quot;},
        &quot;rect_m_maj_slash&quot;:{&quot;phon&quot;:&quot;phon_m_maj_slash&quot;, &quot;color&quot;:&quot;lightgray&quot;, &quot;api&quot;:&quot;ɰ&quot;, &quot;audio&quot;:&quot;audio/audio_m_maj_slash.ogg&quot;, &quot;wiki&quot;:&quot;https://fr.wikipedia.org/wiki/Consonne_spirante_v%C3%A9laire_vois%C3%A9e&quot;},
        &quot;rect_n&quot;:{&quot;phon&quot;:&quot;phon_n&quot;, &quot;color&quot;:&quot;#656ea7&quot;, &quot;api&quot;:&quot;n&quot;, &quot;audio&quot;:&quot;audio/audio_n.ogg&quot;, &quot;wiki&quot;:&quot;https://fr.wikipedia.org/wiki/Consonne_nasale_alv%C3%A9olaire_vois%C3%A9e&quot;},
        &quot;rect_n_maj&quot;:{&quot;phon&quot;:&quot;phon_n_maj&quot;, &quot;color&quot;:&quot;#586329&quot;, &quot;api&quot;:&quot;ŋ&quot;, &quot;audio&quot;:&quot;audio/audio_n_maj.ogg&quot;, &quot;wiki&quot;:&quot;https://fr.wikipedia.org/wiki/Consonne_nasale_v%C3%A9laire_vois%C3%A9e&quot;},
        &quot;rect_n_maj_slash&quot;:{&quot;phon&quot;:&quot;phon_n_maj_slash&quot;, &quot;color&quot;:&quot;lightgray&quot;, &quot;api&quot;:&quot;ɴ&quot;, &quot;audio&quot;:&quot;audio/audio_n_maj_slash.ogg&quot;, &quot;wiki&quot;:&quot;https://fr.wikipedia.org/wiki/Consonne_nasale_uvulaire_vois%C3%A9e&quot;},
        &quot;rect_n_retr&quot;:{&quot;phon&quot;:&quot;phon_n_retr&quot;, &quot;color&quot;:&quot;lightgray&quot;, &quot;api&quot;:&quot;ɳ&quot;, &quot;audio&quot;:&quot;audio/audio_n_retr.ogg&quot;, &quot;wiki&quot;:&quot;https://fr.wikipedia.org/wiki/Consonne_nasale_r%C3%A9troflexe_vois%C3%A9e&quot;},
        &quot;rect_o&quot;:{&quot;phon&quot;:&quot;phon_o&quot;, &quot;color&quot;:&quot;#a64b00&quot;, &quot;api&quot;:&quot;o&quot;, &quot;audio&quot;:&quot;audio/audio_o.ogg&quot;, &quot;wiki&quot;:&quot;https://fr.wikipedia.org/wiki/Voyelle_mi-ferm%C3%A9e_post%C3%A9rieure_arrondie&quot;},
        &quot;rect_o_maj&quot;:{&quot;phon&quot;:&quot;phon_o_maj&quot;, &quot;color&quot;:&quot;#bc7b5e&quot;, &quot;api&quot;:&quot;ɔ&quot;, &quot;audio&quot;:&quot;audio/audio_o_maj.ogg&quot;, &quot;wiki&quot;:&quot;https://fr.wikipedia.org/wiki/Voyelle_mi-ouverte_post%C3%A9rieure_arrondie&quot;},
        &quot;rect_o_maj_long&quot;:{&quot;phon&quot;:&quot;phon_o_maj_long&quot;, &quot;color&quot;:&quot;#bc7b5e&quot;, &quot;api&quot;:&quot;ɔː&quot;, &quot;audio&quot;:&quot;audio/audio_o_maj_long.ogg&quot;, &quot;wiki&quot;:&quot;&quot;, &quot;name&quot;:&quot;Voyelle mi-ouverte postérieure arrondie longue&quot;},
        &quot;rect_o_maj_nas&quot;:{&quot;phon&quot;:&quot;phon_o_maj_nas&quot;, &quot;color&quot;:&quot;#7f2a18&quot;, &quot;api&quot;:&quot;ɔ̃&quot;, &quot;audio&quot;:&quot;audio/audio_o_maj_nas.ogg&quot;, &quot;wiki&quot;:&quot;&quot;, &quot;name&quot;:&quot;Voyelle mi-ouverte postérieure arrondie nasalisée&quot;},
        &quot;rect_o_maj_slash&quot;:{&quot;phon&quot;:&quot;phon_o_maj_slash&quot;, &quot;color&quot;:&quot;lightgray&quot;, &quot;api&quot;:&quot;ʘ&quot;, &quot;audio&quot;:&quot;audio/audio_o_maj_slash.ogg&quot;, &quot;wiki&quot;:&quot;https://fr.wikipedia.org/wiki/Clic_bilabial&quot;},
        &quot;rect_p&quot;:{&quot;phon&quot;:&quot;phon_p&quot;, &quot;color&quot;:&quot;#90312f&quot;, &quot;api&quot;:&quot;p&quot;, &quot;audio&quot;:&quot;audio/audio_p.ogg&quot;, &quot;wiki&quot;:&quot;https://fr.wikipedia.org/wiki/Consonne_occlusive_bilabiale_sourde&quot;},
        &quot;rect_p_chev2&quot;:{&quot;phon&quot;:&quot;phon_p_chev2&quot;, &quot;color&quot;:&quot;lightgray&quot;, &quot;api&quot;:&quot;pʼ&quot;, &quot;audio&quot;:&quot;audio/audio_p_chev2.ogg&quot;, &quot;wiki&quot;:&quot;https://fr.wikipedia.org/wiki/Consonne_occlusive_%C3%A9jective_bilabiale&quot;},
        &quot;rect_p_d&quot;:{&quot;phon&quot;:&quot;phon_p_d&quot;, &quot;color&quot;:&quot;lightgray&quot;, &quot;api&quot;:&quot;p̪&quot;, &quot;audio&quot;:&quot;audio/audio_p_d.ogg&quot;, &quot;wiki&quot;:&quot;https://fr.wikipedia.org/wiki/Consonne_occlusive_labio-dentale_sourde&quot;},
        &quot;rect_p_h&quot;:{&quot;phon&quot;:&quot;phon_p_h&quot;, &quot;color&quot;:&quot;#00cccc&quot;, &quot;api&quot;:&quot;pʰ&quot;, &quot;audio&quot;:&quot;audio/audio_p_h.ogg&quot;, &quot;wiki&quot;:&quot;&quot;, &quot;name&quot;:&quot;Consonne occlusive bilabiale sourde aspirée&quot;},
        &quot;rect_p_maj&quot;:{&quot;phon&quot;:&quot;phon_p_maj&quot;, &quot;color&quot;:&quot;lightgray&quot;, &quot;api&quot;:&quot;ʋ&quot;, &quot;audio&quot;:&quot;audio/audio_p_maj.ogg&quot;, &quot;wiki&quot;:&quot;https://fr.wikipedia.org/wiki/Consonne_spirante_labio-dentale_vois%C3%A9e&quot;},
        &quot;rect_p_slash&quot;:{&quot;phon&quot;:&quot;phon_p_slash&quot;, &quot;color&quot;:&quot;#e8ea2d&quot;, &quot;api&quot;:&quot;ɸ&quot;, &quot;audio&quot;:&quot;audio/audio_p_slash.ogg&quot;, &quot;wiki&quot;:&quot;https://fr.wikipedia.org/wiki/Consonne_fricative_bilabiale_sourde&quot;},
        &quot;rect_pipe_slash&quot;:{&quot;phon&quot;:&quot;phon_pipe_slash&quot;, &quot;color&quot;:&quot;lightgray&quot;, &quot;api&quot;:&quot;ǀ&quot;, &quot;audio&quot;:&quot;audio/audio_pipe_slash.ogg&quot;, &quot;wiki&quot;:&quot;https://fr.wikipedia.org/wiki/Clic_dental&quot;},
        &quot;rect_pipe_slashpipe_slash&quot;:{&quot;phon&quot;:&quot;phon_pipe_slashpipe_slash&quot;, &quot;color&quot;:&quot;lightgray&quot;, &quot;api&quot;:&quot;ǁ&quot;, &quot;audio&quot;:&quot;audio/audio_pipe_slashpipe_slash.ogg&quot;, &quot;wiki&quot;:&quot;https://fr.wikipedia.org/wiki/Clic_alv%C3%A9olaire_lat%C3%A9ral&quot;},
        &quot;rect_q&quot;:{&quot;phon&quot;:&quot;phon_q&quot;, &quot;color&quot;:&quot;lightgray&quot;, &quot;api&quot;:&quot;q&quot;, &quot;audio&quot;:&quot;audio/audio_q.ogg&quot;, &quot;wiki&quot;:&quot;https://fr.wikipedia.org/wiki/Consonne_occlusive_uvulaire_sourde&quot;},
        &quot;rect_q_chev2&quot;:{&quot;phon&quot;:&quot;phon_q_chev2&quot;, &quot;color&quot;:&quot;lightgray&quot;, &quot;api&quot;:&quot;qʼ&quot;, &quot;audio&quot;:&quot;audio/audio_q_chev2.ogg&quot;, &quot;wiki&quot;:&quot;https://fr.wikipedia.org/wiki/Consonne_occlusive_%C3%A9jective_uvulaire&quot;},
        &quot;rect_q_maj&quot;:{&quot;phon&quot;:&quot;phon_q_maj&quot;, &quot;color&quot;:&quot;#ce9165&quot;, &quot;api&quot;:&quot;ɒ&quot;, &quot;audio&quot;:&quot;audio/audio_q_maj.ogg&quot;, &quot;wiki&quot;:&quot;https://fr.wikipedia.org/wiki/Voyelle_ouverte_post%C3%A9rieure_arrondie&quot;},
        &quot;rect_r&quot;:{&quot;phon&quot;:&quot;phon_r&quot;, &quot;color&quot;:&quot;lightgray&quot;, &quot;api&quot;:&quot;r&quot;, &quot;audio&quot;:&quot;audio/audio_r.ogg&quot;, &quot;wiki&quot;:&quot;https://fr.wikipedia.org/wiki/Consonne_roul%C3%A9e_alv%C3%A9olaire_vois%C3%A9e&quot;},
        &quot;rect_r_0&quot;:{&quot;phon&quot;:&quot;phon_r_0&quot;, &quot;color&quot;:&quot;lightgray&quot;, &quot;api&quot;:&quot;r̥&quot;, &quot;audio&quot;:&quot;audio/audio_r_0.ogg&quot;, &quot;wiki&quot;:&quot;https://fr.wikipedia.org/wiki/Consonne_roul%C3%A9e_alv%C3%A9olaire_sourde&quot;},
        &quot;rect_r_maj&quot;:{&quot;phon&quot;:&quot;phon_r_maj&quot;, &quot;color&quot;:&quot;#ee863f&quot;, &quot;api&quot;:&quot;ʁ&quot;, &quot;audio&quot;:&quot;audio/audio_r_maj.ogg&quot;, &quot;wiki&quot;:&quot;https://fr.wikipedia.org/wiki/Consonne_fricative_uvulaire_vois%C3%A9e&quot;},
        &quot;rect_r_maj_slash&quot;:{&quot;phon&quot;:&quot;phon_r_maj_slash&quot;, &quot;color&quot;:&quot;lightgray&quot;, &quot;api&quot;:&quot;ʀ&quot;, &quot;audio&quot;:&quot;audio/audio_r_maj_slash.ogg&quot;, &quot;wiki&quot;:&quot;https://fr.wikipedia.org/wiki/Consonne_roul%C3%A9e_uvulaire_vois%C3%A9e&quot;},
        &quot;rect_r_retr&quot;:{&quot;phon&quot;:&quot;phon_r_retr&quot;, &quot;color&quot;:&quot;lightgray&quot;, &quot;api&quot;:&quot;ɽ&quot;, &quot;audio&quot;:&quot;audio/audio_r_retr.ogg&quot;, &quot;wiki&quot;:&quot;https://fr.wikipedia.org/wiki/Consonne_battue_r%C3%A9troflexe_vois%C3%A9e&quot;},
        &quot;rect_r_slash&quot;:{&quot;phon&quot;:&quot;phon_r_slash&quot;, &quot;color&quot;:&quot;#fe6017&quot;, &quot;api&quot;:&quot;ɹ&quot;, &quot;audio&quot;:&quot;audio/audio_r_slash.ogg&quot;, &quot;wiki&quot;:&quot;https://fr.wikipedia.org/wiki/Consonne_spirante_alv%C3%A9olaire_vois%C3%A9e&quot;},
        &quot;rect_r_slash_retr&quot;:{&quot;phon&quot;:&quot;phon_r_slash_retr&quot;, &quot;color&quot;:&quot;#8C9194&quot;, &quot;api&quot;:&quot;ɻ&quot;, &quot;audio&quot;:&quot;audio/audio_r_slash_retr.ogg&quot;, &quot;wiki&quot;:&quot;https://fr.wikipedia.org/wiki/Consonne_spirante_r%C3%A9troflexe_vois%C3%A9e&quot;},
        &quot;rect_s&quot;:{&quot;phon&quot;:&quot;phon_s&quot;, &quot;color&quot;:&quot;#6eab2c&quot;, &quot;api&quot;:&quot;s&quot;, &quot;audio&quot;:&quot;audio/audio_s.ogg&quot;, &quot;wiki&quot;:&quot;https://fr.wikipedia.org/wiki/Consonne_fricative_alv%C3%A9olaire_sourde&quot;},
        &quot;rect_s_chev2&quot;:{&quot;phon&quot;:&quot;phon_s_chev2&quot;, &quot;color&quot;:&quot;lightgray&quot;, &quot;api&quot;:&quot;sʼ&quot;, &quot;audio&quot;:&quot;audio/audio_s_chev2.ogg&quot;, &quot;wiki&quot;:&quot;https://fr.wikipedia.org/wiki/Consonne_fricative_%C3%A9jective_alv%C3%A9olaire&quot;},
        &quot;rect_s_maj&quot;:{&quot;phon&quot;:&quot;phon_s_maj&quot;, &quot;color&quot;:&quot;#019bcf&quot;, &quot;api&quot;:&quot;ʃ&quot;, &quot;audio&quot;:&quot;audio/audio_s_maj.ogg&quot;, &quot;wiki&quot;:&quot;https://fr.wikipedia.org/wiki/Consonne_fricative_palato-alv%C3%A9olaire_sourde&quot;},
        &quot;rect_s_maj_chev2&quot;:{&quot;phon&quot;:&quot;phon_s_maj_chev2&quot;, &quot;color&quot;:&quot;lightgray&quot;, &quot;api&quot;:&quot;ʃʼ&quot;, &quot;audio&quot;:&quot;audio/audio_s_maj_chev2.ogg&quot;, &quot;wiki&quot;:&quot;https://fr.wikipedia.org/wiki/Consonne_fricative_%C3%A9jective_palato-alv%C3%A9olaire&quot;},
        &quot;rect_s_retr&quot;:{&quot;phon&quot;:&quot;phon_s_retr&quot;, &quot;color&quot;:&quot;#00ffff&quot;, &quot;api&quot;:&quot;ʂ&quot;, &quot;audio&quot;:&quot;audio/audio_s_retr.ogg&quot;, &quot;wiki&quot;:&quot;https://fr.wikipedia.org/wiki/Consonne_fricative_r%C3%A9troflexe_sourde&quot;},
        &quot;rect_s_slash&quot;:{&quot;phon&quot;:&quot;phon_s_slash&quot;, &quot;color&quot;:&quot;#ffbe86&quot;, &quot;api&quot;:&quot;ɕ&quot;, &quot;audio&quot;:&quot;audio/audio_s_slash.ogg&quot;, &quot;wiki&quot;:&quot;https://fr.wikipedia.org/wiki/Consonne_fricative_alv%C3%A9olo-palatale_sourde&quot;},
        &quot;rect_t&quot;:{&quot;phon&quot;:&quot;phon_t&quot;, &quot;color&quot;:&quot;#bb2970&quot;, &quot;api&quot;:&quot;t&quot;, &quot;audio&quot;:&quot;audio/audio_t.ogg&quot;, &quot;wiki&quot;:&quot;https://fr.wikipedia.org/wiki/Consonne_occlusive_alv%C3%A9olaire_sourde&quot;},
        &quot;rect_t_chev2&quot;:{&quot;phon&quot;:&quot;phon_t_chev2&quot;, &quot;color&quot;:&quot;lightgray&quot;, &quot;api&quot;:&quot;tʼ&quot;, &quot;audio&quot;:&quot;audio/audio_t_chev2.ogg&quot;, &quot;wiki&quot;:&quot;https://fr.wikipedia.org/wiki/Consonne_occlusive_%C3%A9jective_alv%C3%A9olaire&quot;},
        &quot;rect_t_h&quot;:{&quot;phon&quot;:&quot;phon_t_h&quot;, &quot;color&quot;:&quot;#ffff00&quot;, &quot;api&quot;:&quot;tʰ&quot;, &quot;audio&quot;:&quot;audio/audio_t_h.ogg&quot;, &quot;wiki&quot;:&quot;&quot;, &quot;name&quot;:&quot;Consonne occlusive alvéolaire sourde aspirée&quot;},
        &quot;rect_t_maj&quot;:{&quot;phon&quot;:&quot;phon_t_maj&quot;, &quot;color&quot;:&quot;#e9ea8c&quot;, &quot;api&quot;:&quot;θ&quot;, &quot;audio&quot;:&quot;audio/audio_t_maj.ogg&quot;, &quot;wiki&quot;:&quot;https://fr.wikipedia.org/wiki/Consonne_fricative_dentale_sourde&quot;},
        &quot;rect_t_retr&quot;:{&quot;phon&quot;:&quot;phon_t_retr&quot;, &quot;color&quot;:&quot;lightgray&quot;, &quot;api&quot;:&quot;ʈ&quot;, &quot;audio&quot;:&quot;audio/audio_t_retr.oga&quot;, &quot;wiki&quot;:&quot;https://fr.wikipedia.org/wiki/Consonne_occlusive_r%C3%A9troflexe_sourde&quot;},
        &quot;rect_t_retr_chev2&quot;:{&quot;phon&quot;:&quot;phon_t_retr_chev2&quot;, &quot;color&quot;:&quot;lightgray&quot;, &quot;api&quot;:&quot;ʈʼ&quot;, &quot;audio&quot;:&quot;audio/audio_t_retr_chev2.ogg&quot;, &quot;wiki&quot;:&quot;https://fr.wikipedia.org/wiki/Consonne_occlusive_%C3%A9jective_r%C3%A9troflexe&quot;},
        &quot;rect_u&quot;:{&quot;phon&quot;:&quot;phon_u&quot;, &quot;color&quot;:&quot;#007b4e&quot;, &quot;api&quot;:&quot;u&quot;, &quot;audio&quot;:&quot;audio/audio_u.ogg&quot;, &quot;wiki&quot;:&quot;https://fr.wikipedia.org/wiki/Voyelle_ferm%C3%A9e_post%C3%A9rieure_arrondie&quot;},
        &quot;rect_u_long&quot;:{&quot;phon&quot;:&quot;phon_u_long&quot;, &quot;color&quot;:&quot;#007b4e&quot;, &quot;api&quot;:&quot;uː&quot;, &quot;audio&quot;:&quot;audio/audio_u_long.ogg&quot;, &quot;wiki&quot;:&quot;&quot;, &quot;name&quot;:&quot;Voyelle fermée postérieure arrondie longue&quot;},
        &quot;rect_u_maj&quot;:{&quot;phon&quot;:&quot;phon_u_maj&quot;, &quot;color&quot;:&quot;#ae9a91&quot;, &quot;api&quot;:&quot;ʊ&quot;, &quot;audio&quot;:&quot;audio/audio_u_maj.ogg&quot;, &quot;wiki&quot;:&quot;https://fr.wikipedia.org/wiki/Voyelle_pr%C3%A9-ferm%C3%A9e_post%C3%A9rieure_arrondie&quot;},
        &quot;rect_v&quot;:{&quot;phon&quot;:&quot;phon_v&quot;, &quot;color&quot;:&quot;#9a8d1b&quot;, &quot;api&quot;:&quot;v&quot;, &quot;audio&quot;:&quot;audio/audio_v.ogg&quot;, &quot;wiki&quot;:&quot;https://fr.wikipedia.org/wiki/Consonne_fricative_labio-dentale_vois%C3%A9e&quot;},
        &quot;rect_v_flap&quot;:{&quot;phon&quot;:&quot;phon_v_flap&quot;, &quot;color&quot;:&quot;lightgray&quot;, &quot;api&quot;:&quot;ⱱ&quot;, &quot;audio&quot;:&quot;audio/audio_v_flap.ogg&quot;, &quot;wiki&quot;:&quot;https://fr.wikipedia.org/wiki/Consonne_battue_labio-dentale_vois%C3%A9e&quot;},
        &quot;rect_v_maj&quot;:{&quot;phon&quot;:&quot;phon_v_maj&quot;, &quot;color&quot;:&quot;#feea56&quot;, &quot;api&quot;:&quot;ʌ&quot;, &quot;audio&quot;:&quot;audio/audio_v_maj.ogg&quot;, &quot;wiki&quot;:&quot;https://fr.wikipedia.org/wiki/Voyelle_mi-ouverte_post%C3%A9rieure_non_arrondie&quot;},
        &quot;rect_w&quot;:{&quot;phon&quot;:&quot;phon_w&quot;, &quot;color&quot;:&quot;#7acabf&quot;, &quot;api&quot;:&quot;w&quot;, &quot;audio&quot;:&quot;audio/audio_w.ogg&quot;, &quot;wiki&quot;:&quot;https://fr.wikipedia.org/wiki/Consonne_spirante_labio-v%C3%A9laire_vois%C3%A9e&quot;},
        &quot;rect_w_maj&quot;:{&quot;phon&quot;:&quot;phon_w_maj&quot;, &quot;color&quot;:&quot;lightgray&quot;, &quot;api&quot;:&quot;ʍ&quot;, &quot;audio&quot;:&quot;audio/audio_w_maj.ogg&quot;, &quot;wiki&quot;:&quot;https://fr.wikipedia.org/wiki/Consonne_spirante_labio-v%C3%A9laire_sourde&quot;},
        &quot;rect_x&quot;:{&quot;phon&quot;:&quot;phon_x&quot;, &quot;color&quot;:&quot;#dcede7&quot;, &quot;api&quot;:&quot;x&quot;, &quot;audio&quot;:&quot;audio/audio_x.ogg&quot;, &quot;wiki&quot;:&quot;https://fr.wikipedia.org/wiki/Consonne_fricative_v%C3%A9laire_sourde&quot;},
        &quot;rect_x_chev2&quot;:{&quot;phon&quot;:&quot;phon_x_chev2&quot;, &quot;color&quot;:&quot;lightgray&quot;, &quot;api&quot;:&quot;xʼ&quot;, &quot;audio&quot;:&quot;audio/audio_x_chev2.ogg&quot;, &quot;wiki&quot;:&quot;https://fr.wikipedia.org/wiki/Consonne_fricative_%C3%A9jective_v%C3%A9laire&quot;},
        &quot;rect_x_maj&quot;:{&quot;phon&quot;:&quot;phon_x_maj&quot;, &quot;color&quot;:&quot;lightgray&quot;, &quot;api&quot;:&quot;χ&quot;, &quot;audio&quot;:&quot;audio/audio_x_maj.ogg&quot;, &quot;wiki&quot;:&quot;https://fr.wikipedia.org/wiki/Consonne_fricative_uvulaire_sourde&quot;},
        &quot;rect_x_maj_slash&quot;:{&quot;phon&quot;:&quot;phon_x_maj_slash&quot;, &quot;color&quot;:&quot;lightgray&quot;, &quot;api&quot;:&quot;ħ&quot;, &quot;audio&quot;:&quot;audio/audio_x_maj_slash.ogg&quot;, &quot;wiki&quot;:&quot;https://fr.wikipedia.org/wiki/Consonne_fricative_pharyngale_sourde&quot;},
        &quot;rect_x_slash&quot;:{&quot;phon&quot;:&quot;phon_x_slash&quot;, &quot;color&quot;:&quot;lightgray&quot;, &quot;api&quot;:&quot;ɧ&quot;, &quot;audio&quot;:&quot;audio/audio_x_slash.ogg&quot;, &quot;wiki&quot;:&quot;https://fr.wikipedia.org/wiki/Consonne_fricative_post-alv%C3%A9olo-v%C3%A9laire_sourde&quot;},
        &quot;rect_y&quot;:{&quot;phon&quot;:&quot;phon_y&quot;, &quot;color&quot;:&quot;#e8bb85&quot;, &quot;api&quot;:&quot;y&quot;, &quot;audio&quot;:&quot;audio/audio_y.ogg&quot;, &quot;wiki&quot;:&quot;https://fr.wikipedia.org/wiki/Voyelle_ferm%C3%A9e_ant%C3%A9rieure_arrondie&quot;},
        &quot;rect_y_maj&quot;:{&quot;phon&quot;:&quot;phon_y_maj&quot;, &quot;color&quot;:&quot;lightgray&quot;, &quot;api&quot;:&quot;ʏ&quot;, &quot;audio&quot;:&quot;audio/audio_y_maj.ogg&quot;, &quot;wiki&quot;:&quot;https://fr.wikipedia.org/wiki/Voyelle_pr%C3%A9-ferm%C3%A9e_ant%C3%A9rieure_arrondie&quot;},
        &quot;rect_z&quot;:{&quot;phon&quot;:&quot;phon_z&quot;, &quot;color&quot;:&quot;#aa4581&quot;, &quot;api&quot;:&quot;z&quot;, &quot;audio&quot;:&quot;audio/audio_z.ogg&quot;, &quot;wiki&quot;:&quot;https://fr.wikipedia.org/wiki/Consonne_fricative_alv%C3%A9olaire_vois%C3%A9e&quot;},
        &quot;rect_z_maj&quot;:{&quot;phon&quot;:&quot;phon_z_maj&quot;, &quot;color&quot;:&quot;#126293&quot;, &quot;api&quot;:&quot;ʒ&quot;, &quot;audio&quot;:&quot;audio/audio_z_maj.ogg&quot;, &quot;wiki&quot;:&quot;https://fr.wikipedia.org/wiki/Consonne_fricative_palato-alv%C3%A9olaire_vois%C3%A9e&quot;},
        &quot;rect_z_retr&quot;:{&quot;phon&quot;:&quot;phon_z_retr&quot;, &quot;color&quot;:&quot;#3333ff&quot;, &quot;api&quot;:&quot;ʐ&quot;, &quot;audio&quot;:&quot;audio/audio_z_retr.ogg&quot;, &quot;wiki&quot;:&quot;https://fr.wikipedia.org/wiki/Consonne_fricative_r%C3%A9troflexe_vois%C3%A9e&quot;},
        &quot;rect_z_slash&quot;:{&quot;phon&quot;:&quot;phon_z_slash&quot;, &quot;color&quot;:&quot;#7fe9ab&quot;, &quot;api&quot;:&quot;ʑ&quot;, &quot;audio&quot;:&quot;audio/audio_z_slash.ogg&quot;, &quot;wiki&quot;:&quot;https://fr.wikipedia.org/wiki/Consonne_fricative_alv%C3%A9olo-palatale_vois%C3%A9e&quot;},
        &quot;rect_schwi&quot;:{&quot;phon&quot;:&quot;phon_schwi&quot;, &quot;color&quot;:&quot;#f8b3ba&quot;, &quot;api&quot;:&quot;pour l'anglais i/ɪ&quot;, &quot;audio&quot;:&quot;audio/audio_schwi.ogg&quot;, &quot;wiki&quot;:&quot;&quot;, &quot;name&quot;:&quot;&quot;},
        &quot;rect_schwa&quot;:{&quot;phon&quot;:&quot;phon_schwa&quot;, &quot;color&quot;:&quot;#e7dd87&quot;, &quot;api&quot;:&quot;pour l'anglais ə&quot;, &quot;audio&quot;:&quot;audio/audio_schwa.ogg&quot;, &quot;wiki&quot;:&quot;&quot;, &quot;name&quot;:&quot;&quot;},
        &quot;rect_schwu&quot;:{&quot;phon&quot;:&quot;phon_schwu&quot;, &quot;color&quot;:&quot;#b9dbc5&quot;, &quot;api&quot;:&quot;pour l'anglais u/ʊ&quot;, &quot;audio&quot;:&quot;audio/audio_schwu.ogg&quot;, &quot;wiki&quot;:&quot;&quot;, &quot;name&quot;:&quot;&quot;},
        &quot;rect_a_majr&quot;:{&quot;phon&quot;:&quot;phon_a_majr&quot;, &quot;color&quot;:&quot;bicolor2&quot;, &quot;collist&quot;:[&quot;phon_a_maj&quot;,&quot;phon_r_slash&quot;], &quot;api&quot;:&quot;ɑɹ&quot;, &quot;audio&quot;:&quot;&quot;, &quot;wiki&quot;:&quot;&quot;, &quot;name&quot;:&quot;&quot;},
        &quot;rect_ai_maj&quot;:{&quot;phon&quot;:&quot;phon_ai_maj&quot;, &quot;color&quot;:&quot;bicolor2&quot;, &quot;collist&quot;:[&quot;phon_a&quot;,&quot;phon_i_maj&quot;], &quot;api&quot;:&quot;aɪ&quot;, &quot;audio&quot;:&quot;&quot;, &quot;wiki&quot;:&quot;&quot;, &quot;name&quot;:&quot;&quot;},
        &quot;rect_ai_majarobase&quot;:{&quot;phon&quot;:&quot;phon_ai_majarobase&quot;, &quot;color&quot;:&quot;tricolor&quot;, &quot;collist&quot;:[&quot;phon_a&quot;,&quot;phon_i_maj&quot;,&quot;phon_schwa&quot;], &quot;api&quot;:&quot;aɪə&quot;, &quot;audio&quot;:&quot;&quot;, &quot;wiki&quot;:&quot;&quot;, &quot;name&quot;:&quot;&quot;},
        &quot;rect_au_maj&quot;:{&quot;phon&quot;:&quot;phon_au_maj&quot;, &quot;color&quot;:&quot;bicolor2&quot;, &quot;collist&quot;:[&quot;phon_a&quot;,&quot;phon_u_maj&quot;], &quot;api&quot;:&quot;aʊ&quot;, &quot;audio&quot;:&quot;&quot;, &quot;wiki&quot;:&quot;&quot;, &quot;name&quot;:&quot;&quot;},
        &quot;rect_au_majwarobase&quot;:{&quot;phon&quot;:&quot;phon_au_majwarobase&quot;, &quot;color&quot;:&quot;quadricolor&quot;, &quot;collist&quot;:[&quot;phon_a&quot;,&quot;phon_u_maj&quot;,&quot;phon_w&quot;,&quot;phon_schwa&quot;], &quot;api&quot;:&quot;aʊwə&quot;, &quot;audio&quot;:&quot;&quot;, &quot;wiki&quot;:&quot;&quot;, &quot;name&quot;:&quot;&quot;},
        &quot;rect_arobasel&quot;:{&quot;phon&quot;:&quot;phon_arobasel&quot;, &quot;color&quot;:&quot;bicolor&quot;, &quot;collist&quot;:[&quot;phon_schwa&quot;,&quot;phon_l&quot;], &quot;api&quot;:&quot;əl&quot;, &quot;audio&quot;:&quot;&quot;, &quot;wiki&quot;:&quot;&quot;, &quot;name&quot;:&quot;&quot;},
        &quot;rect_arobasem&quot;:{&quot;phon&quot;:&quot;phon_arobasem&quot;, &quot;color&quot;:&quot;bicolor&quot;, &quot;collist&quot;:[&quot;phon_schwa&quot;,&quot;phon_m&quot;], &quot;api&quot;:&quot;əm&quot;, &quot;audio&quot;:&quot;&quot;, &quot;wiki&quot;:&quot;&quot;, &quot;name&quot;:&quot;&quot;},
        &quot;rect_arobasen&quot;:{&quot;phon&quot;:&quot;phon_arobasen&quot;, &quot;color&quot;:&quot;bicolor&quot;, &quot;collist&quot;:[&quot;phon_schwa&quot;,&quot;phon_n&quot;], &quot;api&quot;:&quot;ən&quot;, &quot;audio&quot;:&quot;&quot;, &quot;wiki&quot;:&quot;&quot;, &quot;name&quot;:&quot;&quot;},
        &quot;rect_arobaseu_maj&quot;:{&quot;phon&quot;:&quot;phon_arobaseu_maj&quot;, &quot;color&quot;:&quot;bicolor2&quot;, &quot;collist&quot;:[&quot;phon_schwa&quot;,&quot;phon_u_maj&quot;], &quot;api&quot;:&quot;əʊ&quot;, &quot;audio&quot;:&quot;&quot;, &quot;wiki&quot;:&quot;&quot;, &quot;name&quot;:&quot;&quot;},
        &quot;rect_dz&quot;:{&quot;phon&quot;:&quot;phon_dz&quot;, &quot;color&quot;:&quot;bicolor&quot;, &quot;collist&quot;:[&quot;phon_d&quot;,&quot;phon_z&quot;], &quot;api&quot;:&quot;d͡z&quot;, &quot;audio&quot;:&quot;audio/audio_dz.oga&quot;, &quot;wiki&quot;:&quot;https://fr.wikipedia.org/wiki/Consonne_affriqu%C3%A9e_alv%C3%A9olaire_vois%C3%A9e&quot;},
        &quot;rect_dz_maj&quot;:{&quot;phon&quot;:&quot;phon_dz_maj&quot;, &quot;color&quot;:&quot;bicolor&quot;, &quot;collist&quot;:[&quot;phon_d&quot;,&quot;phon_z_maj&quot;], &quot;api&quot;:&quot;d͡ʒ&quot;, &quot;audio&quot;:&quot;audio/audio_dz_maj.ogg&quot;, &quot;wiki&quot;:&quot;https://fr.wikipedia.org/wiki/Consonne_affriqu%C3%A9e_palato-alv%C3%A9olaire_vois%C3%A9e&quot;},
        &quot;rect_dz_retr&quot;:{&quot;phon&quot;:&quot;phon_dz_retr&quot;, &quot;color&quot;:&quot;bicolor&quot;, &quot;collist&quot;:[&quot;phon_d&quot;,&quot;phon_z_retr&quot;], &quot;api&quot;:&quot;ɖ͡ʐ&quot;, &quot;audio&quot;:&quot;audio/audio_dz_retr.ogg&quot;, &quot;wiki&quot;:&quot;https://fr.wikipedia.org/wiki/Consonne_affriqu%C3%A9e_r%C3%A9troflexe_vois%C3%A9e&quot;},
        &quot;rect_dz_slash&quot;:{&quot;phon&quot;:&quot;phon_dz_slash&quot;, &quot;color&quot;:&quot;bicolor&quot;, &quot;collist&quot;:[&quot;phon_d&quot;,&quot;phon_z_slash&quot;], &quot;api&quot;:&quot;d͡ʑ&quot;, &quot;audio&quot;:&quot;audio/audio_dz_slash.ogg&quot;, &quot;wiki&quot;:&quot;https://fr.wikipedia.org/wiki/Consonne_affriqu%C3%A9e_alv%C3%A9olo-palatale_vois%C3%A9e&quot;},
        &quot;rect_ef&quot;:{&quot;phon&quot;:&quot;phon_ef&quot;, &quot;color&quot;:&quot;bicolor&quot;, &quot;collist&quot;:[&quot;phon_e&quot;,&quot;phon_f&quot;], &quot;api&quot;:&quot;ef&quot;, &quot;audio&quot;:&quot;&quot;, &quot;wiki&quot;:&quot;&quot;, &quot;name&quot;:&quot;&quot;},
        &quot;rect_ei_maj&quot;:{&quot;phon&quot;:&quot;phon_ei_maj&quot;, &quot;color&quot;:&quot;bicolor2&quot;, &quot;collist&quot;:[&quot;phon_e&quot;,&quot;phon_i_maj&quot;], &quot;api&quot;:&quot;eɪ&quot;, &quot;audio&quot;:&quot;&quot;, &quot;wiki&quot;:&quot;&quot;, &quot;name&quot;:&quot;&quot;},
        &quot;rect_earobase&quot;:{&quot;phon&quot;:&quot;phon_earobase&quot;, &quot;color&quot;:&quot;bicolor2&quot;, &quot;collist&quot;:[&quot;phon_e&quot;,&quot;phon_schwa&quot;], &quot;api&quot;:&quot;eə&quot;, &quot;audio&quot;:&quot;&quot;, &quot;wiki&quot;:&quot;&quot;, &quot;name&quot;:&quot;&quot;},
        &quot;rect_er&quot;:{&quot;phon&quot;:&quot;phon_er&quot;, &quot;color&quot;:&quot;bicolor2&quot;, &quot;collist&quot;:[&quot;phon_e&quot;,&quot;phon_r_slash&quot;], &quot;api&quot;:&quot;eɹ&quot;, &quot;audio&quot;:&quot;&quot;, &quot;wiki&quot;:&quot;&quot;, &quot;name&quot;:&quot;&quot;},
        &quot;rect_i_majarobase&quot;:{&quot;phon&quot;:&quot;phon_i_majarobase&quot;, &quot;color&quot;:&quot;bicolor2&quot;, &quot;collist&quot;:[&quot;phon_i_maj&quot;,&quot;phon_schwa&quot;], &quot;api&quot;:&quot;ɪə&quot;, &quot;audio&quot;:&quot;&quot;, &quot;wiki&quot;:&quot;&quot;, &quot;name&quot;:&quot;&quot;},
        &quot;rect_ju_majarobase&quot;:{&quot;phon&quot;:&quot;phon_ju_majarobase&quot;, &quot;color&quot;:&quot;tricolor&quot;, &quot;collist&quot;:[&quot;phon_j&quot;,&quot;phon_u_maj&quot;,&quot;phon_schwa&quot;], &quot;api&quot;:&quot;jʊə&quot;, &quot;audio&quot;:&quot;&quot;, &quot;wiki&quot;:&quot;&quot;, &quot;name&quot;:&quot;&quot;},
        &quot;rect_gb&quot;:{&quot;phon&quot;:&quot;phon_gb&quot;, &quot;color&quot;:&quot;bicolor&quot;, &quot;collist&quot;:[&quot;phon_g&quot;,&quot;phon_b&quot;], &quot;api&quot;:&quot;ɡ͡b&quot;, &quot;audio&quot;:&quot;audio/audio_gb.ogg&quot;, &quot;wiki&quot;:&quot;https://fr.wikipedia.org/wiki/Consonne_occlusive_labiale-v%C3%A9laire_vois%C3%A9e&quot;},
        &quot;rect_gz&quot;:{&quot;phon&quot;:&quot;phon_gz&quot;, &quot;color&quot;:&quot;bicolor&quot;, &quot;collist&quot;:[&quot;phon_g&quot;,&quot;phon_z&quot;], &quot;api&quot;:&quot;ɡz&quot;, &quot;audio&quot;:&quot;&quot;, &quot;wiki&quot;:&quot;&quot;, &quot;name&quot;:&quot;&quot;},
        &quot;rect_gz_maj&quot;:{&quot;phon&quot;:&quot;phon_gz_maj&quot;, &quot;color&quot;:&quot;bicolor&quot;, &quot;collist&quot;:[&quot;phon_g&quot;,&quot;phon_z_maj&quot;], &quot;api&quot;:&quot;ɡʒ&quot;, &quot;audio&quot;:&quot;&quot;, &quot;wiki&quot;:&quot;&quot;, &quot;name&quot;:&quot;&quot;},
        &quot;rect_h_maj_i&quot;:{&quot;phon&quot;:&quot;phon_h_maj_i&quot;, &quot;color&quot;:&quot;bicolor&quot;, &quot;collist&quot;:[&quot;phon_h_maj&quot;,&quot;phon_i&quot;], &quot;api&quot;:&quot;ɥi&quot;, &quot;audio&quot;:&quot;&quot;, &quot;wiki&quot;:&quot;&quot;, &quot;name&quot;:&quot;&quot;},
        &quot;rect_ij&quot;:{&quot;phon&quot;:&quot;phon_ij&quot;, &quot;color&quot;:&quot;bicolor&quot;, &quot;collist&quot;:[&quot;phon_i&quot;,&quot;phon_j&quot;], &quot;api&quot;:&quot;ij&quot;, &quot;audio&quot;:&quot;&quot;, &quot;wiki&quot;:&quot;&quot;, &quot;name&quot;:&quot;&quot;},
        &quot;rect_i_majr&quot;:{&quot;phon&quot;:&quot;phon_i_majr&quot;, &quot;color&quot;:&quot;bicolor2&quot;, &quot;collist&quot;:[&quot;phon_i_maj&quot;,&quot;phon_r_slash&quot;], &quot;api&quot;:&quot;ɪɹ&quot;, &quot;audio&quot;:&quot;&quot;, &quot;wiki&quot;:&quot;&quot;, &quot;name&quot;:&quot;&quot;},
        &quot;rect_j_maj&quot;:{&quot;phon&quot;:&quot;phon_j_maj&quot;, &quot;color&quot;:&quot;bicolor&quot;, &quot;collist&quot;:[&quot;phon_n&quot;,&quot;phon_j&quot;], &quot;api&quot;:&quot;ɲ&quot;, &quot;audio&quot;:&quot;audio/audio_j_maj.ogg&quot;, &quot;wiki&quot;:&quot;https://fr.wikipedia.org/wiki/Consonne_nasale_palatale_vois%C3%A9e&quot;},
        &quot;rect_jarobase&quot;:{&quot;phon&quot;:&quot;phon_jarobase&quot;, &quot;color&quot;:&quot;bicolor&quot;, &quot;collist&quot;:[&quot;phon_j&quot;,&quot;phon_schwa&quot;], &quot;api&quot;:&quot;jə&quot;, &quot;audio&quot;:&quot;&quot;, &quot;wiki&quot;:&quot;&quot;,&quot;name&quot;:&quot;&quot;},
        &quot;rect_ju_long&quot;:{&quot;phon&quot;:&quot;phon_ju_long&quot;, &quot;color&quot;:&quot;bicolor&quot;, &quot;collist&quot;:[&quot;phon_j&quot;,&quot;phon_u_long&quot;], &quot;api&quot;:&quot;juː&quot;, &quot;audio&quot;:&quot;&quot;, &quot;wiki&quot;:&quot;&quot;, &quot;name&quot;:&quot;&quot;},
        &quot;rect_ju_majr&quot;:{&quot;phon&quot;:&quot;phon_ju_majr&quot;, &quot;color&quot;:&quot;tricolor&quot;, &quot;collist&quot;:[&quot;phon_j&quot;,&quot;phon_u_maj&quot;,&quot;phon_r_slash&quot;], &quot;api&quot;:&quot;jʊɹ&quot;, &quot;audio&quot;:&quot;&quot;, &quot;wiki&quot;:&quot;&quot;, &quot;name&quot;:&quot;&quot;},
        &quot;rect_kp&quot;:{&quot;phon&quot;:&quot;phon_kp&quot;, &quot;color&quot;:&quot;bicolor&quot;, &quot;collist&quot;:[&quot;phon_k&quot;,&quot;phon_p&quot;], &quot;api&quot;:&quot;k͡p&quot;, &quot;audio&quot;:&quot;audio/audio_kp.ogg&quot;, &quot;wiki&quot;:&quot;https://fr.wikipedia.org/wiki/Consonne_occlusive_labiale-v%C3%A9laire_sourde&quot;},
        &quot;rect_ks&quot;:{&quot;phon&quot;:&quot;phon_ks&quot;, &quot;color&quot;:&quot;bicolor&quot;, &quot;collist&quot;:[&quot;phon_k&quot;,&quot;phon_s&quot;], &quot;api&quot;:&quot;k͡s&quot;, &quot;audio&quot;:&quot;audio/audio_ks.ogg&quot;, &quot;wiki&quot;:&quot;&quot;, &quot;name&quot;:&quot;Consonne double ks&quot;},
        &quot;rect_ks_maj&quot;:{&quot;phon&quot;:&quot;phon_ks_maj&quot;, &quot;color&quot;:&quot;bicolor&quot;, &quot;collist&quot;:[&quot;phon_k&quot;,&quot;phon_s_maj&quot;], &quot;api&quot;:&quot;kʃ&quot;, &quot;audio&quot;:&quot;&quot;, &quot;wiki&quot;:&quot;&quot;, &quot;name&quot;:&quot;&quot;},
        &quot;rect_kx&quot;:{&quot;phon&quot;:&quot;phon_kx&quot;, &quot;color&quot;:&quot;bicolor&quot;, &quot;collist&quot;:[&quot;phon_k&quot;,&quot;phon_x&quot;], &quot;api&quot;:&quot;k͡x&quot;, &quot;audio&quot;:&quot;audio/audio_kx.ogg&quot;, &quot;wiki&quot;:&quot;https://fr.wikipedia.org/wiki/Consonne_affriqu%C3%A9e_v%C3%A9laire_sourde&quot;},
        &quot;rect_kw&quot;:{&quot;phon&quot;:&quot;phon_kw&quot;, &quot;color&quot;:&quot;bicolor&quot;, &quot;collist&quot;:[&quot;phon_k&quot;,&quot;phon_w&quot;], &quot;api&quot;:&quot;kw&quot;, &quot;audio&quot;:&quot;&quot;, &quot;wiki&quot;:&quot;&quot;, &quot;name&quot;:&quot;&quot;},
        &quot;rect_lj&quot;:{&quot;phon&quot;:&quot;phon_lj&quot;, &quot;color&quot;:&quot;bicolor&quot;, &quot;collist&quot;:[&quot;phon_l&quot;,&quot;phon_j&quot;], &quot;api&quot;:&quot;lj&quot;, &quot;audio&quot;:&quot;&quot;, &quot;wiki&quot;:&quot;&quot;, &quot;name&quot;:&quot;&quot;},
        &quot;rect_nj&quot;:{&quot;phon&quot;:&quot;phon_nj&quot;, &quot;color&quot;:&quot;bicolor&quot;, &quot;collist&quot;:[&quot;phon_n&quot;,&quot;phon_j&quot;], &quot;api&quot;:&quot;ɲ/nj&quot;, &quot;audio&quot;:&quot;&quot;, &quot;wiki&quot;:&quot;&quot;, &quot;name&quot;:&quot;&quot;},
        &quot;rect_ou_maj&quot;:{&quot;phon&quot;:&quot;phon_ou_maj&quot;, &quot;color&quot;:&quot;bicolor2&quot;, &quot;collist&quot;:[&quot;phon_o&quot;,&quot;phon_u_maj&quot;], &quot;api&quot;:&quot;oʊ&quot;, &quot;audio&quot;:&quot;&quot;, &quot;wiki&quot;:&quot;&quot;, &quot;name&quot;:&quot;&quot;},
        &quot;rect_o_maji_maj&quot;:{&quot;phon&quot;:&quot;phon_o_maji_maj&quot;, &quot;color&quot;:&quot;bicolor2&quot;, &quot;collist&quot;:[&quot;phon_o_maj&quot;,&quot;phon_i_maj&quot;], &quot;api&quot;:&quot;ɔɪ&quot;, &quot;audio&quot;:&quot;&quot;, &quot;wiki&quot;:&quot;&quot;, &quot;name&quot;:&quot;&quot;},
        &quot;rect_o_majr&quot;:{&quot;phon&quot;:&quot;phon_o_majr&quot;, &quot;color&quot;:&quot;bicolor2&quot;, &quot;collist&quot;:[&quot;phon_o_maj&quot;,&quot;phon_r_slash&quot;], &quot;api&quot;:&quot;ɔɹ&quot;, &quot;audio&quot;:&quot;&quot;, &quot;wiki&quot;:&quot;&quot;, &quot;name&quot;:&quot;&quot;},
        &quot;rect_pf&quot;:{&quot;phon&quot;:&quot;phon_pf&quot;, &quot;color&quot;:&quot;bicolor&quot;, &quot;collist&quot;:[&quot;phon_p&quot;,&quot;phon_f&quot;], &quot;api&quot;:&quot;p͡f&quot;, &quot;audio&quot;:&quot;audio/audio_pf.ogg&quot;, &quot;wiki&quot;:&quot;https://fr.wikipedia.org/wiki/Consonne_affriqu%C3%A9e_labio-dentale_sourde&quot;},
        &quot;rect_sz&quot;:{&quot;phon&quot;:&quot;phon_sz&quot;, &quot;color&quot;:&quot;bicolor&quot;, &quot;collist&quot;:[&quot;phon_s&quot;,&quot;phon_z&quot;], &quot;api&quot;:&quot;sz&quot;, &quot;audio&quot;:&quot;&quot;, &quot;wiki&quot;:&quot;&quot;,&quot;name&quot;:&quot;&quot;},
        &quot;rect_t_hs&quot;:{&quot;phon&quot;:&quot;phon_t_hs&quot;, &quot;color&quot;:&quot;bicolor&quot;, &quot;collist&quot;:[&quot;phon_t_h&quot;,&quot;phon_s&quot;], &quot;api&quot;:&quot;t͡sʰ&quot;, &quot;audio&quot;:&quot;&quot;, &quot;wiki&quot;:&quot;&quot;},
        &quot;rect_t_hs_retr&quot;:{&quot;phon&quot;:&quot;phon_t_hs_retr&quot;, &quot;color&quot;:&quot;bicolor&quot;, &quot;collist&quot;:[&quot;phon_t_h&quot;,&quot;phon_s_retr&quot;], &quot;api&quot;:&quot;t͡ʂʰ&quot;, &quot;audio&quot;:&quot;&quot;, &quot;wiki&quot;:&quot;&quot;},
        &quot;rect_t_hs_slash&quot;:{&quot;phon&quot;:&quot;phon_t_hs_slash&quot;, &quot;color&quot;:&quot;bicolor&quot;, &quot;collist&quot;:[&quot;phon_t_h&quot;,&quot;phon_s_slash&quot;], &quot;api&quot;:&quot;t͡ɕʰ&quot;, &quot;audio&quot;:&quot;&quot;, &quot;wiki&quot;:&quot;&quot;},
        &quot;rect_tk_maj&quot;:{&quot;phon&quot;:&quot;phon_tk_maj&quot;, &quot;color&quot;:&quot;bicolor&quot;, &quot;collist&quot;:[&quot;phon_t&quot;,&quot;phon_k_maj&quot;], &quot;api&quot;:&quot;t͡ɬ&quot;, &quot;audio&quot;:&quot;audio/audio_tk_maj.ogg&quot;, &quot;wiki&quot;:&quot;https://fr.wikipedia.org/wiki/Consonne_affriqu%C3%A9e_lat%C3%A9rale_alv%C3%A9olaire_sourde&quot;},
        &quot;rect_tk_maj_slash&quot;:{&quot;phon&quot;:&quot;phon_tk_maj_slash&quot;, &quot;color&quot;:&quot;bicolor&quot;, &quot;collist&quot;:[&quot;phon_t&quot;,&quot;phon_k_maj_slash&quot;], &quot;api&quot;:&quot;d͡ɮ&quot;, &quot;audio&quot;:&quot;audio/audio_tk_maj_slash.ogg&quot;, &quot;wiki&quot;:&quot;https://fr.wikipedia.org/wiki/Consonne_affriqu%C3%A9e_lat%C3%A9rale_alv%C3%A9olaire_vois%C3%A9e&quot;},
        &quot;rect_ts&quot;:{&quot;phon&quot;:&quot;phon_ts&quot;, &quot;color&quot;:&quot;bicolor&quot;, &quot;collist&quot;:[&quot;phon_t&quot;,&quot;phon_s&quot;], &quot;api&quot;:&quot;t͡s&quot;, &quot;audio&quot;:&quot;audio/audio_ts.oga&quot;, &quot;wiki&quot;:&quot;https://fr.wikipedia.org/wiki/Consonne_affriqu%C3%A9e_alv%C3%A9olaire_sourde&quot;},
        &quot;rect_ts_chev2&quot;:{&quot;phon&quot;:&quot;phon_ts_chev2&quot;, &quot;color&quot;:&quot;bicolor&quot;, &quot;collist&quot;:[&quot;phon_t&quot;,&quot;phon_s_chev2&quot;], &quot;api&quot;:&quot;t͡sʼ&quot;, &quot;audio&quot;:&quot;audio/audio_ts_chev2.ogg&quot;, &quot;wiki&quot;:&quot;https://fr.wikipedia.org/wiki/Consonne_affriqu%C3%A9e_%C3%A9jective_alv%C3%A9olaire&quot;},
        &quot;rect_ts_maj&quot;:{&quot;phon&quot;:&quot;phon_ts_maj&quot;, &quot;color&quot;:&quot;bicolor&quot;, &quot;collist&quot;:[&quot;phon_t&quot;,&quot;phon_s_maj&quot;], &quot;api&quot;:&quot;t͡ʃ&quot;, &quot;audio&quot;:&quot;audio/audio_ts_maj.ogg&quot;, &quot;wiki&quot;:&quot;https://fr.wikipedia.org/wiki/Consonne_affriqu%C3%A9e_palato-alv%C3%A9olaire_sourde&quot;},
        &quot;rect_ts_maj_chev2&quot;:{&quot;phon&quot;:&quot;phon_ts_maj_chev2&quot;, &quot;color&quot;:&quot;bicolor&quot;, &quot;collist&quot;:[&quot;phon_t&quot;,&quot;phon_s_maj_chev2&quot;], &quot;api&quot;:&quot;t͡ʃʼ&quot;, &quot;audio&quot;:&quot;audio/audio_ts_maj_chev2.ogg&quot;, &quot;wiki&quot;:&quot;https://fr.wikipedia.org/wiki/Consonne_affriqu%C3%A9e_%C3%A9jective_palato-alv%C3%A9olaire&quot;},
        &quot;rect_ts_retr&quot;:{&quot;phon&quot;:&quot;phon_ts_retr&quot;, &quot;color&quot;:&quot;bicolor&quot;, &quot;collist&quot;:[&quot;phon_t&quot;,&quot;phon_s_retr&quot;], &quot;api&quot;:&quot;ʈ͡ʂ&quot;, &quot;audio&quot;:&quot;audio/audio_ts_retr.ogg&quot;, &quot;wiki&quot;:&quot;https://fr.wikipedia.org/wiki/Consonne_affriqu%C3%A9e_r%C3%A9troflexe_sourde&quot;},
        &quot;rect_ts_slash&quot;:{&quot;phon&quot;:&quot;phon_ts_slash&quot;, &quot;color&quot;:&quot;bicolor&quot;, &quot;collist&quot;:[&quot;phon_t&quot;,&quot;phon_s_slash&quot;], &quot;api&quot;:&quot;t͡ɕ&quot;, &quot;audio&quot;:&quot;audio/audio_ts_slash.ogg&quot;, &quot;wiki&quot;:&quot;https://fr.wikipedia.org/wiki/Consonne_affriqu%C3%A9e_alv%C3%A9olo-palatale_sourde&quot;},
        &quot;rect_tt_maj&quot;:{&quot;phon&quot;:&quot;phon_tt_maj&quot;, &quot;color&quot;:&quot;bicolor&quot;, &quot;collist&quot;:[&quot;phon_t&quot;,&quot;phon_t_maj&quot;], &quot;api&quot;:&quot;tθ&quot;, &quot;audio&quot;:&quot;&quot;, &quot;wiki&quot;:&quot;&quot;,&quot;name&quot;:&quot;&quot;},
        &quot;rect_u_majarobase&quot;:{&quot;phon&quot;:&quot;phon_u_majarobase&quot;, &quot;color&quot;:&quot;bicolor2&quot;, &quot;collist&quot;:[&quot;phon_u_maj&quot;,&quot;phon_schwa&quot;], &quot;api&quot;:&quot;ʊə&quot;, &quot;audio&quot;:&quot;&quot;, &quot;wiki&quot;:&quot;&quot;, &quot;name&quot;:&quot;&quot;},
        &quot;rect_u_majr&quot;:{&quot;phon&quot;:&quot;phon_u_majr&quot;, &quot;color&quot;:&quot;bicolor2&quot;, &quot;collist&quot;:[&quot;phon_u_maj&quot;,&quot;phon_r_slash&quot;], &quot;api&quot;:&quot;ʊɹ&quot;, &quot;audio&quot;:&quot;&quot;, &quot;wiki&quot;:&quot;&quot;, &quot;name&quot;:&quot;&quot;},
        &quot;rect_wa&quot;:{&quot;phon&quot;:&quot;phon_wa&quot;, &quot;color&quot;:&quot;bicolor&quot;, &quot;collist&quot;:[&quot;phon_w&quot;,&quot;phon_a&quot;], &quot;api&quot;:&quot;wa&quot;, &quot;audio&quot;:&quot;&quot;, &quot;wiki&quot;:&quot;&quot;, &quot;name&quot;:&quot;&quot;},
        &quot;rect_war&quot;:{&quot;phon&quot;:&quot;phon_war&quot;, &quot;color&quot;:&quot;tricolor&quot;, &quot;collist&quot;:[&quot;phon_w&quot;,&quot;phon_a&quot;,&quot;phon_r_slash&quot;], &quot;api&quot;:&quot;waɹ&quot;, &quot;audio&quot;:&quot;&quot;, &quot;wiki&quot;:&quot;&quot;, &quot;name&quot;:&quot;&quot;},
        &quot;rect_wa_maj&quot;:{&quot;phon&quot;:&quot;phon_wa_maj&quot;, &quot;color&quot;:&quot;bicolor&quot;, &quot;collist&quot;:[&quot;phon_w&quot;,&quot;phon_a_maj&quot;], &quot;api&quot;:&quot;wɑ&quot;, &quot;audio&quot;:&quot;&quot;, &quot;wiki&quot;:&quot;&quot;, &quot;name&quot;:&quot;&quot;},
        &quot;rect_wa_maj_long&quot;:{&quot;phon&quot;:&quot;phon_wa_maj_long&quot;, &quot;color&quot;:&quot;bicolor&quot;, &quot;collist&quot;:[&quot;phon_w&quot;,&quot;phon_a_maj_long&quot;], &quot;api&quot;:&quot;wɑː&quot;, &quot;audio&quot;:&quot;&quot;, &quot;wiki&quot;:&quot;&quot;, &quot;name&quot;:&quot;&quot;},
        &quot;rect_wai_maj&quot;:{&quot;phon&quot;:&quot;phon_wai_maj&quot;, &quot;color&quot;:&quot;tricolor&quot;, &quot;collist&quot;:[&quot;phon_w&quot;,&quot;phon_a&quot;,&quot;phon_i_maj&quot;], &quot;api&quot;:&quot;waɪ&quot;, &quot;audio&quot;:&quot;&quot;, &quot;wiki&quot;:&quot;&quot;, &quot;name&quot;:&quot;&quot;},
        &quot;rect_we_maj_nas&quot;:{&quot;phon&quot;:&quot;phon_we_maj_nas&quot;, &quot;color&quot;:&quot;bicolor&quot;, &quot;collist&quot;:[&quot;phon_w&quot;,&quot;phon_e_maj_nas&quot;], &quot;api&quot;:&quot;wɛ̃&quot;, &quot;audio&quot;:&quot;&quot;, &quot;wiki&quot;:&quot;&quot;, &quot;name&quot;:&quot;&quot;},
        &quot;rect_wv_maj&quot;:{&quot;phon&quot;:&quot;phon_wv_maj&quot;, &quot;color&quot;:&quot;bicolor&quot;, &quot;collist&quot;:[&quot;phon_w&quot;,&quot;phon_v_maj&quot;], &quot;api&quot;:&quot;wʌ&quot;, &quot;audio&quot;:&quot;&quot;, &quot;wiki&quot;:&quot;&quot;, &quot;name&quot;:&quot;&quot;},
        &quot;rect_h_maji&quot;:{&quot;phon&quot;:&quot;phon_h_maji&quot;, &quot;color&quot;:&quot;bicolor&quot;, &quot;collist&quot;:[&quot;phon_h_maj&quot;,&quot;phon_i&quot;], &quot;api&quot;:&quot;ɥi&quot;, &quot;audio&quot;:&quot;&quot;, &quot;wiki&quot;:&quot;&quot;, &quot;name&quot;:&quot;&quot;},
        &quot;rect_schwju&quot;:{&quot;phon&quot;:&quot;phon_schwju&quot;, &quot;color&quot;:&quot;bicolor&quot;, &quot;collist&quot;:[&quot;phon_j&quot;,&quot;phon_schwu&quot;], &quot;api&quot;:&quot;ju/jʊ&quot;, &quot;audio&quot;:&quot;&quot;, &quot;wiki&quot;:&quot;&quot;, &quot;name&quot;:&quot;&quot;},
        &quot;rect_schwiz&quot;:{&quot;phon&quot;:&quot;phon_schwiz&quot;, &quot;color&quot;:&quot;bicolor&quot;, &quot;collist&quot;:[&quot;phon_schwi&quot;,&quot;phon_z&quot;], &quot;api&quot;:&quot;iz/ɪz&quot;, &quot;audio&quot;:&quot;&quot;, &quot;wiki&quot;:&quot;&quot;, &quot;name&quot;:&quot;&quot;},
        &quot;rect_schwaz&quot;:{&quot;phon&quot;:&quot;phon_schwaz&quot;, &quot;color&quot;:&quot;bicolor&quot;, &quot;collist&quot;:[&quot;phon_schwa&quot;,&quot;phon_z&quot;], &quot;api&quot;:&quot;əz&quot;, &quot;audio&quot;:&quot;&quot;, &quot;wiki&quot;:&quot;&quot;, &quot;name&quot;:&quot;&quot;}
    }
    </script>
</svg>
