<?xml version="1.0" encoding="UTF-8" standalone="no"?>
<!-- Created with Inkscape (http://www.inkscape.org/) -->

<?xml-stylesheet type="text/css" href="../styles/clavier.css"?><svg
   xmlns:dc="http://purl.org/dc/elements/1.1/"
   xmlns:cc="http://creativecommons.org/ns#"
   xmlns:rdf="http://www.w3.org/1999/02/22-rdf-syntax-ns#"
   xmlns:svg="http://www.w3.org/2000/svg"
   xmlns="http://www.w3.org/2000/svg"
   xmlns:sodipodi="http://sodipodi.sourceforge.net/DTD/sodipodi-0.dtd"
   xmlns:inkscape="http://www.inkscape.org/namespaces/inkscape"
   version="1.1"
   id="svg2"
   width="1122.5601"
   height="793.59998"
   viewBox="0 0 1122.5601 793.59998"
   sodipodi:docname="00-click.svg"
   inkscape:version="0.92.3 (2405546, 2018-03-11)">
  <metadata
     id="metadata8">
    <rdf:RDF>
      <cc:Work
         rdf:about="">
        <dc:format>image/svg+xml</dc:format>
        <dc:type
           rdf:resource="http://purl.org/dc/dcmitype/StillImage" />
        <dc:title />
      </cc:Work>
    </rdf:RDF>
  </metadata>
  <defs
     id="defs6" />
  <sodipodi:namedview
     pagecolor="#ffffff"
     bordercolor="#666666"
     borderopacity="1"
     objecttolerance="10"
     gridtolerance="10"
     guidetolerance="10"
     inkscape:pageopacity="0"
     inkscape:pageshadow="2"
     inkscape:window-width="1366"
     inkscape:window-height="704"
     id="namedview4"
     showgrid="false"
     inkscape:zoom="0.59475808"
     inkscape:cx="632.68827"
     inkscape:cy="466.3896"
     inkscape:window-x="0"
     inkscape:window-y="27"
     inkscape:window-maximized="1"
     inkscape:current-layer="svg2" />
  <rect
     style="fill:#000000;fill-opacity:0"
     id="bg"
     width="1122.5601"
     height="793.59998"
     x="0"
     y="0"
     onclick="top.initGraph()" />
  <rect
     class="svgPhonClick"
     style="fill:#ff0000;fill-opacity:0;stroke-width:1.0920589"
     id="rect_e_maj_nas"
     width="117.70092"
     height="95.706306"
     x="61.228256"
     y="162.88951"
     onclick="top.recupPhon(this.id) ; top.showPopDiv(this)"
     onmouseover="top.showPopDiv(this)"
     onmouseout="top.hidePopDiv()" />
  <rect
     class="svgPhonClick"
     style="fill:#ff0000;fill-opacity:0;stroke-width:0.97319824"
     id="rect_e_maj"
     width="118.29536"
     height="76.569557"
     x="194.97929"
     y="178.93964"
     onclick="top.recupPhon(this.id) ; top.showPopDiv(this)"
     onmouseover="top.showPopDiv(this)"
     onmouseout="top.hidePopDiv()" />
  <rect
     class="svgPhonClick"
     style="fill:#ff0000;fill-opacity:0;stroke-width:0.99377793"
     id="rect_e"
     width="118.29536"
     height="66.926514"
     x="195.57375"
     y="94.714348"
     onclick="top.recupPhon(this.id) ; top.showPopDiv(this)"
     onmouseover="top.showPopDiv(this)"
     onmouseout="top.hidePopDiv()" />
  <rect
     class="svgPhonClick"
     style="fill:#ff0000;fill-opacity:0;stroke-width:1.03654826"
     id="rect_i"
     width="118.29536"
     height="60.676048"
     x="194.97929"
     y="13.682792"
     onclick="top.recupPhon(this.id) ; top.showPopDiv(this)"
     onmouseover="top.showPopDiv(this)"
     onmouseout="top.hidePopDiv()" />
  <rect
     class="svgPhonClick"
     style="fill:#ff0000;fill-opacity:0;stroke-width:0.89945441"
     id="rect_y"
     width="72.167313"
     height="61.864948"
     x="329.3248"
     y="12.493894"
     onclick="top.recupPhon(this.id) ; top.showPopDiv(this)"
     onmouseover="top.showPopDiv(this)"
     onmouseout="top.hidePopDiv()" />
  <rect
     class="svgPhonClick"
     style="fill:#ff0000;fill-opacity:0;stroke-width:0.96261579"
     id="rect_2"
     width="85.02372"
     height="71.478127"
     x="324.03452"
     y="91.351631"
     onclick="top.recupPhon(this.id) ; top.showPopDiv(this)"
     onmouseover="top.showPopDiv(this)"
     onmouseout="top.hidePopDiv()" />
  <rect
     class="svgPhonClick"
     style="fill:#ff0000;fill-opacity:0;stroke-width:0.99466914"
     id="rect_9"
     width="95.706299"
     height="78.221046"
     x="319.83112"
     y="179.12611"
     onclick="top.recupPhon(this.id) ; top.showPopDiv(this)"
     onmouseover="top.showPopDiv(this)"
     onmouseout="top.hidePopDiv()" />
  <rect
     class="svgPhonClick"
     style="fill:#ff0000;fill-opacity:0;stroke-width:0.91180998"
     id="rect_a"
     width="114.09196"
     height="84.038811"
     x="194.97929"
     y="274.42444"
     onclick="top.recupPhon(this.id) ; top.showPopDiv(this)"
     onmouseover="top.showPopDiv(this)"
     onmouseout="top.hidePopDiv()" />
  <rect
     class="svgPhonClick"
     style="fill:#ff0000;fill-opacity:0;stroke-width:1.07606018"
     id="rect_arobase"
     width="99.561493"
     height="74.492615"
     x="421.60138"
     y="88.829605"
     onclick="top.recupPhon(this.id) ; top.showPopDiv(this)"
     onmouseover="top.showPopDiv(this)"
     onmouseout="top.hidePopDiv()" />
  <rect
     class="svgPhonClick"
     style="fill:#ff0000;fill-opacity:0;stroke-width:1.09850669"
     id="rect_9_nas"
     width="99.56147"
     height="92.614548"
     x="421.00693"
     y="163.39946"
     onclick="top.recupPhon(this.id) ; top.showPopDiv(this)"
     onmouseover="top.showPopDiv(this)"
     onmouseout="top.hidePopDiv()" />
  <rect
     class="svgPhonClick"
     style="fill:#ff0000;fill-opacity:0;stroke-width:1.268435"
     id="rect_ij"
     width="132.34067"
     height="40.922245"
     x="61.636219"
     y="366.84531"
     onclick="top.recupPhon(this.id)" />
  <rect
     class="svgPhonClick"
     style="fill:#ff0000;fill-opacity:0;stroke-width:1.25146234"
     id="rect_j"
     width="127.1946"
     height="41.143723"
     x="189.09454"
     y="413.80676"
     onclick="top.recupPhon(this.id) ; top.showPopDiv(this)"
     onmouseover="top.showPopDiv(this)"
     onmouseout="top.hidePopDiv()" />
  <rect
     class="svgPhonClick"
     style="fill:#ff0000;fill-opacity:0;stroke-width:0.83729899"
     id="rect_h_maj"
     width="47.787655"
     height="40.897495"
     x="325.71585"
     y="413.80673"
     onclick="top.recupPhon(this.id)" />
  <rect
     class="svgPhonClick"
     style="fill:#ff0000;fill-opacity:0"
     id="rect_p"
     width="104.62304"
     height="70.739441"
     x="74.900581"
     y="472.00302"
     onclick="top.recupPhon(this.id) ; top.showPopDiv(this)"
     onmouseover="top.showPopDiv(this)"
     onmouseout="top.hidePopDiv()" />
  <rect
     class="svgPhonClick"
     style="fill:#ff0000;fill-opacity:0"
     id="rect_f"
     width="105.81194"
     height="70.144989"
     x="202.11269"
     y="473.19193"
     onclick="top.recupPhon(this.id) ; top.showPopDiv(this)"
     onmouseover="top.showPopDiv(this)"
     onmouseout="top.hidePopDiv()" />
  <rect
     class="svgPhonClick"
     style="fill:#ff0000;fill-opacity:0"
     id="rect_t"
     width="102.83969"
     height="69.550545"
     x="326.35254"
     y="472.59747"
     onclick="top.recupPhon(this.id) ; top.showPopDiv(this)"
     onmouseover="top.showPopDiv(this)"
     onmouseout="top.hidePopDiv()" />
  <rect
     class="svgPhonClick"
     style="fill:#ff0000;fill-opacity:0"
     id="rect_b"
     width="104.02859"
     height="69.550629"
     x="74.900581"
     y="548.68695"
     onclick="top.recupPhon(this.id) ; top.showPopDiv(this)"
     onmouseover="top.showPopDiv(this)"
     onmouseout="top.hidePopDiv()" />
  <rect
     class="svgPhonClick"
     style="fill:#ff0000;fill-opacity:0;stroke-width:1.00599992"
     id="rect_v"
     width="104.02858"
     height="70.688492"
     x="202.70714"
     y="549.96912"
     onclick="top.recupPhon(this.id) ; top.showPopDiv(this)"
     onmouseover="top.showPopDiv(this)"
     onmouseout="top.hidePopDiv()" />
  <rect
     class="svgPhonClick"
     style="fill:#ff0000;fill-opacity:0;stroke-width:1.05640161"
     id="rect_m"
     width="107.93475"
     height="74.594612"
     x="70.399963"
     y="621.8042"
     onclick="top.recupPhon(this.id) ; top.showPopDiv(this)"
     onmouseover="top.showPopDiv(this)"
     onmouseout="top.hidePopDiv()" />
  <rect
     class="svgPhonClick"
     style="fill:#ff0000;fill-opacity:0;stroke-width:1.04740381"
     id="rect_nj"
     width="75.690269"
     height="74.440117"
     x="216.48146"
     y="622.10144"
     onclick="top.recupPhon(this.id) ; top.showPopDiv(this)"
     onmouseover="top.showPopDiv(this)"
     onmouseout="top.hidePopDiv()" />
  <rect
     class="svgPhonClick"
     style="fill:#ff0000;fill-opacity:0;stroke-width:1.02349234"
     id="rect_n"
     width="103.73136"
     height="74.10215"
     x="326.05533"
     y="621.50696"
     onclick="top.recupPhon(this.id) ; top.showPopDiv(this)"
     onmouseover="top.showPopDiv(this)"
     onmouseout="top.hidePopDiv()" />
  <rect
     class="svgPhonClick"
     style="fill:#ff0000;fill-opacity:0"
     id="rect_d"
     width="103.73136"
     height="69.847763"
     x="326.05533"
     y="548.09253"
     onclick="top.recupPhon(this.id) ; top.showPopDiv(this)"
     onmouseover="top.showPopDiv(this)"
     onmouseout="top.hidePopDiv()" />
  <rect
     class="svgPhonClick"
     style="fill:#ff0000;fill-opacity:0;stroke-width:1.05784261"
     id="rect_s"
     width="107.09407"
     height="76.029732"
     x="446.63525"
     y="470.37268"
     onclick="top.recupPhon(this.id) ; top.showPopDiv(this)"
     onmouseover="top.showPopDiv(this)"
     onmouseout="top.hidePopDiv()" />
  <rect
     class="svgPhonClick"
     style="fill:#ff0000;fill-opacity:0;stroke-width:1.04773486"
     id="rect_z"
     width="107.14507"
     height="75.189056"
     x="446.88147"
     y="546.90363"
     onclick="top.recupPhon(this.id) ; top.showPopDiv(this)"
     onmouseover="top.showPopDiv(this)"
     onmouseout="top.hidePopDiv()" />
  <rect
     class="svgPhonClick"
     style="fill:#ff0000;fill-opacity:0;stroke-width:1.04494679"
     id="rect_ts_maj"
     width="74.008896"
     height="76.284706"
     x="570.3739"
     y="470.61893"
     onclick="top.recupPhon(this.id)" />
  <rect
     class="svgPhonClick"
     style="fill:#ff0000;fill-opacity:0;stroke-width:1.02368915"
     id="rect_dz_maj"
     width="74.008911"
     height="73.507698"
     x="570.3739"
     y="546.90363"
     onclick="top.recupPhon(this.id)" />
  <rect
     class="svgPhonClick"
     style="fill:#ff0000;fill-opacity:0;stroke-width:1.05255103"
     id="rect_z_maj"
     width="104.02859"
     height="77.71109"
     x="661.02734"
     y="545.41748"
     onclick="top.recupPhon(this.id) ; top.showPopDiv(this)"
     onmouseover="top.showPopDiv(this)"
     onmouseout="top.hidePopDiv()" />
  <rect
     class="svgPhonClick"
     style="fill:#ff0000;fill-opacity:0;stroke-width:1.01812303"
     id="rect_s_maj"
     width="104.02852"
     height="71.478104"
     x="660.73016"
     y="472.89471"
     onclick="top.recupPhon(this.id) ; top.showPopDiv(this)"
     onmouseover="top.showPopDiv(this)"
     onmouseout="top.hidePopDiv()" />
  <rect
     class="svgPhonClick"
     style="fill:#ff0000;fill-opacity:0;stroke-width:1.07047749"
     id="rect_ks"
     width="75.095818"
     height="77.91507"
     x="782.69421"
     y="468.69131"
     onclick="top.recupPhon(this.id)" />
  <rect
     class="svgPhonClick"
     style="fill:#ff0000;fill-opacity:0;stroke-width:1.05015576"
     id="rect_gz"
     width="75.393021"
     height="75.312164"
     x="782.69421"
     y="546.60638"
     onclick="top.recupPhon(this.id)" />
  <rect
     class="svgPhonClick"
     style="fill:#ff0000;fill-opacity:0"
     id="rect_k"
     width="104.92027"
     height="70.144989"
     x="876.81238"
     y="472.59747"
     onclick="top.recupPhon(this.id) ; top.showPopDiv(this)"
     onmouseover="top.showPopDiv(this)"
     onmouseout="top.hidePopDiv()" />
  <rect
     class="svgPhonClick"
     style="fill:#ff0000;fill-opacity:0;stroke-width:0.99596274"
     id="rect_g"
     width="103.48514"
     height="69.253319"
     x="875.42828"
     y="546.01196"
     onclick="top.recupPhon(this.id) ; top.showPopDiv(this)"
     onmouseover="top.showPopDiv(this)"
     onmouseout="top.hidePopDiv()" />
  <rect
     class="svgPhonClick"
     style="fill:#ff0000;fill-opacity:0;stroke-width:1.02637577"
     id="rect_n_maj"
     width="106.55059"
     height="75.813423"
     x="874.58759"
     y="616.43304"
     onclick="top.recupPhon(this.id)" />
  <rect
     class="svgPhonClick"
     style="fill:#ff0000;fill-opacity:0;stroke-width:1.03601527"
     id="rect_r_maj"
     width="104.99238"
     height="73.753929"
     x="997.41339"
     y="698.4881"
     onclick="top.recupPhon(this.id) ; top.showPopDiv(this)"
     onmouseover="top.showPopDiv(this)"
     onmouseout="top.hidePopDiv()" />
  <rect
     class="svgPhonClick"
     style="fill:#ff0000;fill-opacity:0;stroke-width:1.0237422"
     id="rect_l"
     width="104.24406"
     height="73.349144"
     x="555.05762"
     y="697.97284"
     onclick="top.recupPhon(this.id) ; top.showPopDiv(this)"
     onmouseover="top.showPopDiv(this)"
     onmouseout="top.hidePopDiv()" />
  <rect
     class="svgPhonClick"
     style="fill:#ff0000;fill-opacity:0;stroke-width:0.81450027"
     id="rect_w"
     width="45.21463"
     height="38.86792"
     x="734.60205"
     y="414.104"
     onclick="top.recupPhon(this.id)" />
  <rect
     class="svgPhonClick"
     style="fill:#ff0000;fill-opacity:0;stroke-width:0.89627719"
     id="rect_a_maj"
     width="109.0479"
     height="85.47393"
     x="704.2182"
     y="273.28656"
     onclick="top.recupPhon(this.id) ; top.showPopDiv(this)"
     onmouseover="top.showPopDiv(this)"
     onmouseout="top.hidePopDiv()" />
  <rect
     class="svgPhonClick"
     style="fill:#ff0000;fill-opacity:0;stroke-width:1.02280891"
     id="rect_a_maj_nas"
     width="115.47611"
     height="104.21507"
     x="578.05072"
     y="254.54543"
     onclick="top.recupPhon(this.id) ; top.showPopDiv(this)"
     onmouseover="top.showPopDiv(this)"
     onmouseout="top.hidePopDiv()" />
  <rect
     class="svgPhonClick"
     style="fill:#ff0000;fill-opacity:0;stroke-width:1.00238144"
     id="rect_o_maj"
     width="98.525558"
     height="78.569275"
     x="708.73627"
     y="177.69099"
     onclick="top.recupPhon(this.id) ; top.showPopDiv(this)"
     onmouseover="top.showPopDiv(this)"
     onmouseout="top.hidePopDiv()" />
  <rect
     class="svgPhonClick"
     style="fill:#ff0000;fill-opacity:0;stroke-width:0.97473294"
     id="rect_o"
     width="89.821548"
     height="68.905106"
     x="712.64246"
     y="92.48954"
     onclick="top.recupPhon(this.id) ; top.showPopDiv(this)"
     onmouseover="top.showPopDiv(this)"
     onmouseout="top.hidePopDiv()" />
  <rect
     class="svgPhonClick"
     style="fill:#ff0000;fill-opacity:0;stroke-width:0.83304858"
     id="rect_u"
     width="70.485962"
     height="54.893295"
     x="723.86847"
     y="16.451054"
     onclick="top.recupPhon(this.id) ; top.showPopDiv(this)"
     onmouseover="top.showPopDiv(this)"
     onmouseout="top.hidePopDiv()" />
  <rect
     class="svgPhonClick"
     style="fill:#ff0000;fill-opacity:0;stroke-width:1.05140328"
     id="rect_o_maj_nas"
     width="93.481483"
     height="77.6091"
     x="806.15894"
     y="83.242081"
     onclick="top.recupPhon(this.id) ; top.showPopDiv(this)"
     onmouseover="top.showPopDiv(this)"
     onmouseout="top.hidePopDiv()" />
  <rect
     class="svgPhonClick"
     style="fill:#ff0000;fill-opacity:0;stroke-width:1.13495398"
     id="rect_we_maj_nas"
     width="165.61957"
     height="81.898483"
     x="844.16144"
     y="169.56393"
     onclick="top.recupPhon(this.id) ; top.showPopDiv(this)"
     onmouseover="top.showPopDiv(this)"
     onmouseout="top.hidePopDiv()" />
  <rect
     class="svgPhonClick"
     style="fill:#ff0000;fill-opacity:0;stroke-width:1.13389337"
     id="rect_wa"
     width="146.28398"
     height="100.85236"
     x="853.40887"
     y="260.67639"
     onclick="top.recupPhon(this.id) ; top.showPopDiv(this)"
     onmouseover="top.showPopDiv(this)"
     onmouseout="top.hidePopDiv()" />
</svg>
